<?xml version="1.0" encoding="utf-8"?>
<!-- Generator: Adobe Illustrator 24.2.1, SVG Export Plug-In . SVG Version: 6.00 Build 0)  -->
<svg version="1.1" id="Capa_1" xmlns="http://www.w3.org/2000/svg" xmlns:xlink="http://www.w3.org/1999/xlink" x="0px" y="0px"
	 viewBox="0 0 512 512" style="enable-background:new 0 0 512 512;" xml:space="preserve">
<style type="text/css">
	.st0{fill:#9E9D9D;}
</style>
<g>
	<g>
		<path class="st0" d="M450,0c-2,0-4.1,0.1-6,0.3c-0.8-0.2-1.6-0.3-2.4-0.3H140c-35.3,0-64,28.7-64,64v40c0,5.5,4.5,10,10,10
			s10-4.5,10-10V64c0-24.3,19.7-44,44-44h264.4C394.2,31.1,388,45.8,388,62c0,0.3,0,0.7,0.1,1c0,0.3-0.1,0.7-0.1,1v68.3
			c0,5.5,4.5,10,10,10s10-4.5,10-10V72h94c5.5,0,10-4.5,10-10C512,27.8,484.2,0,450,0z M409.2,52c4.5-18.3,21.1-32,40.8-32
			s36.3,13.7,40.8,32H409.2z"/>
	</g>
</g>
<g>
	<g>
		<path class="st0" d="M337.9,54h-63.5c-5.5,0-10,4.5-10,10s4.5,10,10,10H315L201.6,187.4l-66.5-66.5c-3.9-3.9-10.2-3.9-14.1,0
			l-89.8,89.8c-3.9,3.9-3.9,10.2,0,14.1c2,2,4.5,2.9,7.1,2.9s5.1-1,7.1-2.9l82.7-82.7l66.5,66.5c3.9,3.9,10.2,3.9,14.1,0L327.9,89.4
			v38.1c0,5.5,4.5,10,10,10s10-4.5,10-10V64C347.9,58.5,343.4,54,337.9,54z"/>
	</g>
</g>
<g>
	<g>
		<path class="st0" d="M17.1,238.9c-1.9-1.9-4.4-2.9-7.1-2.9s-5.2,1.1-7.1,2.9C1.1,240.8,0,243.4,0,246s1.1,5.2,2.9,7.1
			S7.4,256,10,256s5.2-1.1,7.1-2.9c1.9-1.9,2.9-4.4,2.9-7.1S18.9,240.8,17.1,238.9z"/>
	</g>
</g>
<g>
	<g>
		<path class="st0" d="M456,314c0-5.5-4.5-10-10-10h-76v-76c0-5.5-4.5-10-10-10c-52.9,0-96,43.1-96,96s43.1,96,96,96
			c9.7,0,19.1-1.5,28-4.2V450c0,23.2-18.8,42-42,42s-42-18.8-42-42c0-0.3,0-0.6,0-0.9c0-0.4,0.1-0.7,0.1-1.1c0-5.5-4.5-10-10-10H96
			V224c0-5.5-4.5-10-10-10s-10,4.5-10,10v214H32c-5.5,0-10,4.5-10,10c0,35.3,28.7,64,64,64h260c34.2,0,62-27.8,62-62v-52
			c0-0.3,0-0.5,0-0.8C436.7,380.5,456,349.5,456,314z M86,492c-20.8,0-38.3-14.5-42.9-34h241.4c1.7,13,7.4,24.8,15.9,34H86z
			 M360,390c-41.9,0-76-34.1-76-76c0-38.5,28.8-70.4,66-75.3V314c0,5.5,4.5,10,10,10h75.3C430.4,361.2,398.5,390,360,390z"/>
	</g>
</g>
<g>
	<g>
		<path class="st0" d="M394,162c-5.5,0-10,4.5-10,10v108c0,5.5,4.5,10,10,10h108c5.5,0,10-4.5,10-10C512,215,459.1,162,394,162z
			 M404,270v-87.5c46.1,4.7,82.8,41.4,87.5,87.5H404z"/>
	</g>
</g>
<g>
	<g>
		<path class="st0" d="M211,324h-86c-5.5,0-10,4.5-10,10s4.5,10,10,10h86c5.5,0,10-4.5,10-10S216.5,324,211,324z"/>
	</g>
</g>
<g>
	<g>
		<path class="st0" d="M257.6,374.9c-1.9-1.9-4.4-2.9-7.1-2.9s-5.2,1.1-7.1,2.9s-2.9,4.4-2.9,7.1s1.1,5.2,2.9,7.1
			c1.9,1.9,4.4,2.9,7.1,2.9s5.2-1.1,7.1-2.9c1.9-1.9,2.9-4.4,2.9-7.1S259.4,376.8,257.6,374.9z"/>
	</g>
</g>
<g>
	<g>
		<path class="st0" d="M211,372h-86c-5.5,0-10,4.5-10,10s4.5,10,10,10h86c5.5,0,10-4.5,10-10S216.5,372,211,372z"/>
	</g>
</g>
<g>
	<g>
		<path class="st0" d="M159.4,276H125c-5.5,0-10,4.5-10,10s4.5,10,10,10h34.4c5.5,0,10-4.5,10-10S164.9,276,159.4,276z"/>
	</g>
</g>
</svg>
