<?xml version="1.0" encoding="utf-8"?>
<!-- Generator: Adobe Illustrator 24.2.1, SVG Export Plug-In . SVG Version: 6.00 Build 0)  -->
<svg version="1.1" id="Capa_1" xmlns="http://www.w3.org/2000/svg" xmlns:xlink="http://www.w3.org/1999/xlink" x="0px" y="0px"
	 viewBox="0 0 512 498.9" style="enable-background:new 0 0 512 498.9;" xml:space="preserve">
<style type="text/css">
	.st0{fill:#9E9D9D;}
	.st1{clip-path:url(#SVGID_2_);}
</style>
<path class="st0" d="M326.6,126.5c13.8,0,25-11.2,25-25s-11.2-25-25-25s-25,11.2-25,25c0,5.4,1.8,10.7,5,15l-41.1,57.4
	c-8.6-2.8-18.2-0.8-24.8,5.5l-27.3-15.5c0.4-1.7,0.6-3.5,0.6-5.3c0-13.8-11.2-25-25-25c-13.8,0-25,11.2-25,25c0,1.8,0.2,3.5,0.6,5.3
	l-27.4,15.5c-10.1-9.4-25.9-8.8-35.3,1.3s-8.8,25.9,1.3,35.3c10.1,9.4,25.9,8.8,35.3-1.3c4.3-4.6,6.7-10.7,6.7-17
	c0-1.8-0.2-3.5-0.6-5.3l27.4-15.5c9.6,8.9,24.4,8.9,34,0l27.4,15.6c-0.4,1.7-0.6,3.5-0.6,5.3c0,13.8,11.2,25,25,25
	c13.8,0,25-11.2,25-25c0-5.4-1.8-10.7-5-15l41.1-57.4C321.4,126.1,324,126.5,326.6,126.5z M326.6,91.5c5.5,0,10,4.5,10,10
	s-4.5,10-10,10s-10-4.5-10-10S321.1,91.5,326.6,91.5z M120.1,207.7c-5.5,0-10-4.5-10-10s4.5-10,10-10s10,4.5,10,10
	S125.6,207.7,120.1,207.7z M189,168.6c-5.5,0-10-4.5-10-10s4.5-10,10-10s10,4.5,10,10S194.5,168.6,189,168.6z M257.8,207.7
	c-5.5,0-10-4.5-10-10s4.5-10,10-10c5.5,0,10,4.5,10,10C267.8,203.2,263.4,207.7,257.8,207.7C257.8,207.7,257.8,207.7,257.8,207.7
	L257.8,207.7z"/>
<path class="st0" d="M418.8,370.4H21.2c-3.4,0-6.2-2.8-6.2-6.2c0,0,0,0,0,0V54.8c0-3.4,2.8-6.2,6.2-6.2h35.3c4.1,0,7.5-3.4,7.5-7.5
	s-3.4-7.5-7.5-7.5H21.2C9.5,33.6,0,43.1,0,54.8v309.4c0,11.7,9.5,21.2,21.2,21.3h51.7V402c0,9.4,7.6,17,17,17H165l-35.3,69
	c-1.9,3.7-0.4,8.2,3.3,10.1s8.2,0.4,10.1-3.3l0,0l38.9-75.8h82.9l38.8,75.8c1.9,3.7,6.4,5.2,10.1,3.3c3.7-1.9,5.2-6.4,3.3-10.1
	l-35.3-69h75.1c9.4,0,17-7.6,17-17v-16.5h45c4.1-0.2,7.3-3.7,7.1-7.9C425.7,373.7,422.6,370.6,418.8,370.4L418.8,370.4z M358.8,402
	c0,1.1-0.9,2-2,2H90c-1.1,0-2-0.9-2-2v-16.5h270.8L358.8,402z"/>
<path class="st0" d="M86.6,48.6h339c3.4,0,6.2,2.8,6.2,6.2v71.3c0,4.1,3.4,7.5,7.5,7.5s7.5-3.4,7.5-7.5V54.8
	c0-11.7-9.5-21.2-21.2-21.2H265V18.8C265,8.4,256.6,0,246.2,0h-45.6c-10.4,0-18.8,8.4-18.8,18.8v14.7H86.6c-4.1,0-7.5,3.4-7.5,7.5
	S82.4,48.6,86.6,48.6z M196.7,18.8c0-2.1,1.7-3.8,3.8-3.8h45.6c2.1,0,3.8,1.7,3.8,3.8v14.7h-53.3V18.8z"/>
<path class="st0" d="M104.9,261c-4.1,0-7.5,3.4-7.5,7.5v66.3c0,4.1,3.4,7.5,7.5,7.5h30.4c4.1,0,7.5-3.4,7.5-7.5v-66.3
	c0-4.1-3.4-7.5-7.5-7.5H104.9z M127.8,327.3h-15.4V276h15.4V327.3z"/>
<path class="st0" d="M173.7,222.7c-4.1,0-7.5,3.4-7.5,7.5v104.6c0,4.1,3.4,7.5,7.5,7.5h30.4c4.1,0,7.5-3.4,7.5-7.5V230.2
	c0-4.1-3.3-7.5-7.5-7.5c0,0,0,0,0,0H173.7z M196.7,327.3h-15.4v-89.6h15.4V327.3z"/>
<path class="st0" d="M242.6,261c-4.1,0-7.5,3.4-7.5,7.5v66.3c0,4.1,3.4,7.5,7.5,7.5H273c4.1,0,7.5-3.4,7.5-7.5v-66.3
	c0-4.1-3.4-7.5-7.5-7.5H242.6z M265.5,327.3h-15.4V276h15.4V327.3z"/>
<path class="st0" d="M311.4,305.3c-4.1,0-7.5,3.4-7.5,7.5v22c0,4.1,3.4,7.5,7.5,7.5l0,0h30.4c4.1,0,7.5-3.4,7.5-7.5
	s-3.4-7.5-7.5-7.5h-22.9v-14.5C318.9,308.6,315.6,305.3,311.4,305.3z"/>
<path class="st0" d="M508.2,377.4l-43-74.5c37-39.5,35-101.6-4.5-138.6s-101.6-35-138.6,4.5s-35,101.6,4.5,138.6
	c11.8,11,26.1,19,41.6,23.1c8.3,2.2,16.9,3.4,25.5,3.4c7.4,0,14.8-0.8,22.1-2.5l43,74.5c7.9,13.6,25.3,18.3,39,10.4
	C511.4,408.5,516,391.1,508.2,377.4z M372,316.1c-44.3-11.9-70.5-57.4-58.7-101.7s57.4-70.5,101.7-58.7
	c44.3,11.9,70.5,57.4,58.7,101.7c-5.7,21.3-19.6,39.4-38.7,50.4C416,318.9,393.3,321.9,372,316.1z M490.2,403.4
	c-6.5,3.7-14.7,1.5-18.4-5c0,0,0,0,0,0l-41.4-71.7c4.2-1.7,8.2-3.7,12.1-6c3.9-2.3,7.7-4.8,11.2-7.6l41.4,71.7
	c3.8,6.4,1.6,14.7-4.8,18.4C490.3,403.4,490.3,403.4,490.2,403.4z"/>
<g id="question-mark.psd">
	<g>
		<defs>
			<rect id="SVGID_1_" x="355.5" y="182.1" width="76.1" height="107.7"/>
		</defs>
		<clipPath id="SVGID_2_">
			<use xlink:href="#SVGID_1_"  style="overflow:visible;"/>
		</clipPath>
		<g class="st1">
			<g id="Forma_1">
				<path class="st0" d="M395.3,269.3h-5.2c-3.7,0-6.6,3-6.6,6.6v0v7.2c0,3.7,3,6.6,6.6,6.6h0h5.2c3.7,0,6.7-2.9,6.7-6.6
					c0,0,0,0,0,0V276C402,272.3,399,269.3,395.3,269.3C395.3,269.3,395.3,269.3,395.3,269.3z M421.2,191.3c-6.9-6.1-16.3-9.2-28-9.2
					c-11.2,0-20.2,3-27,9.1c-5.6,4.7-9.3,11.2-10.6,18.3c-0.4,1.9,0.9,3.8,2.8,4.2c0.1,0,0.1,0,0.2,0l9.6,1.2c3,0.4,5.9-1.4,7-4.2
					c1.2-3.3,3.1-6.2,5.7-8.6c3.7-3,8.3-4.6,13-4.4c5.4,0,9.7,1.4,12.9,4.2c3,2.5,4.8,6.2,4.8,10.2c0,2.8-0.9,5.6-2.7,7.8
					c-1.2,1.5-4.7,4.7-10.7,9.5s-10,9.2-11.9,13.1c-1.9,4-2.9,8.3-2.9,12.8c-0.2,3.7,2.7,6.8,6.3,6.9c0.1,0,0.2,0,0.3,0h5.4
					c3.4,0,6.3-2.6,6.6-6.1c0.1-1.9,0.5-3.8,1.3-5.6c1-2.2,3.7-5,8-8.6c8.4-6.9,13.8-12.4,16.4-16.4c2.5-3.8,3.8-8.2,3.8-12.8
					C431.6,204.6,428.2,197.5,421.2,191.3L421.2,191.3z"/>
			</g>
		</g>
	</g>
</g>
</svg>
