<svg xmlns="http://www.w3.org/2000/svg" width="11" height="24" viewBox="0 0 11 24">
  <text id="_" data-name="+" transform="translate(0 18)" fill="#ce2e6c" font-size="18" font-family="NunitoSans-SemiBold, Nunito Sans" font-weight="600"><tspan x="0" y="0">+</tspan></text>
</svg>
