<svg xmlns="http://www.w3.org/2000/svg" width="10.64" height="10.64" viewBox="0 0 10.64 10.64">
  <path id="Path_2092" data-name="Path 2092" d="M22.746,17.729H18.214V13.394a.394.394,0,1,0-.788,0v4.335H12.894a.394.394,0,1,0,0,.788h4.532v4.729a.394.394,0,1,0,.788,0V18.517h4.532a.394.394,0,1,0,0-.788Z" transform="translate(-12.5 -13)" fill="#f2f5f8"/>
</svg>
