<svg xmlns="http://www.w3.org/2000/svg" xmlns:xlink="http://www.w3.org/1999/xlink" width="106.098" height="86.642" viewBox="0 0 106.098 86.642">
  <defs>
    <filter id="Union_2" x="0" y="0" width="106.098" height="86.642" filterUnits="userSpaceOnUse">
      <feOffset dy="1" input="SourceAlpha"/>
      <feGaussianBlur stdDeviation="5" result="blur"/>
      <feFlood flood-opacity="0.141"/>
      <feComposite operator="in" in2="blur"/>
      <feComposite in="SourceGraphic"/>
    </filter>
  </defs>
  <g transform="matrix(1, 0, 0, 1, 0, 0)" filter="url(#Union_2)">
    <path id="Union_2-2" data-name="Union 2" d="M35.763,56.254,29.6,48.281a.989.989,0,0,1-.209-.552H8a8,8,0,0,1-8-8V8A8,8,0,0,1,8,0H68.1a8,8,0,0,1,8,8V39.73a8,8,0,0,1-8,8H43.722a.988.988,0,0,1-.209.552l-6.169,7.972a1,1,0,0,1-1.581,0Z" transform="translate(15 14)" fill="#fff"/>
  </g>
</svg>
