<svg xmlns="http://www.w3.org/2000/svg" width="45" height="55" viewBox="0 0 45 55">
  <g id="Group_983" data-name="Group 983" transform="translate(-1047 -355)">
    <rect id="Rectangle_1651" data-name="Rectangle 1651" width="11" height="55" rx="3" transform="translate(1047 355)" fill="#ce2e6c"/>
    <rect id="Rectangle_1652" data-name="Rectangle 1652" width="11" height="55" rx="3" transform="translate(1064 355)" fill="#ce2e6c"/>
    <rect id="Rectangle_1653" data-name="Rectangle 1653" width="11" height="55" rx="3" transform="translate(1081 355)" fill="#ce2e6c"/>
  </g>
</svg>
