<svg id="plus" xmlns="http://www.w3.org/2000/svg" width="46.008" height="46.008" viewBox="0 0 46.008 46.008">
  <path id="Path_2091" data-name="Path 2091" d="M23,0a23,23,0,1,0,23,23A23.03,23.03,0,0,0,23,0Zm0,44.239A21.235,21.235,0,1,1,44.239,23,21.259,21.259,0,0,1,23,44.239Z" fill="#f2f5f8"/>
  <path id="Path_2092" data-name="Path 2092" d="M35.5,23.617H25.329V13.885a.885.885,0,1,0-1.77,0v9.733H13.385a.885.885,0,1,0,0,1.77H23.56V36a.885.885,0,1,0,1.77,0V25.387H35.5a.885.885,0,1,0,0-1.77Z" transform="translate(-1.44 -1.498)" fill="#f2f5f8"/>
</svg>
