<svg id="calendar_today-24px" xmlns="http://www.w3.org/2000/svg" width="24" height="24" viewBox="0 0 24 24">
  <path id="Path_2399" data-name="Path 2399" d="M0,0H24V24H0Z" fill="none"/>
  <path id="Path_2400" data-name="Path 2400" d="M20,3H19V1H17V3H7V1H5V3H4A2.006,2.006,0,0,0,2,5V21a2.006,2.006,0,0,0,2,2H20a2.006,2.006,0,0,0,2-2V5A2.006,2.006,0,0,0,20,3Zm0,18H4V10H20ZM20,8H4V5H20Z" fill="#c5c5c5"/>
</svg>
