<svg xmlns="http://www.w3.org/2000/svg" width="19.141" height="12.04" viewBox="0 0 19.141 12.04">
  <g id="Group_637" data-name="Group 637" transform="translate(-1455.951 -452.268)">
    <path id="Path_2248" data-name="Path 2248" d="M7317.861,3163.264l-9.127,8.345,9.127,7.972" transform="translate(-1705.9 7771.541) rotate(-90)" fill="none" stroke="#c2c2c2" stroke-linecap="round" stroke-width="2"/>
  </g>
</svg>
