<svg id="edit-24px" xmlns="http://www.w3.org/2000/svg" width="17.503" height="17.503" viewBox="0 0 17.503 17.503">
  <path id="Path_2288" data-name="Path 2288" d="M3,13.392v2.735H5.735L13.8,8.061,11.066,5.326ZM15.916,5.946a.726.726,0,0,0,0-1.028L14.209,3.211a.726.726,0,0,0-1.028,0L11.847,4.545,14.581,7.28l1.335-1.335Z" transform="translate(-0.812 -0.811)" fill="#5a4e63"/>
  <path id="Path_2289" data-name="Path 2289" d="M0,0H17.5V17.5H0Z" fill="none"/>
</svg>
