<svg xmlns="http://www.w3.org/2000/svg" width="71.117" height="52.208" viewBox="0 0 71.117 52.208">
  <g id="team" transform="translate(0 0)">
    <g id="Group_792" data-name="Group 792" transform="translate(54.553 22.277)">
      <g id="Group_791" data-name="Group 791" transform="translate(0 0)">
        <path id="Path_2279" data-name="Path 2279" d="M400.942,229.673c-2.42-1.21-6.957-1.224-7.149-1.224a1.042,1.042,0,0,0,0,2.084c1.171,0,4.57.18,6.217,1a1.042,1.042,0,0,0,.932-1.864Z" transform="translate(-392.751 -228.449)" fill="#ce2e6c"/>
      </g>
    </g>
    <g id="Group_794" data-name="Group 794" transform="translate(0 0)">
      <g id="Group_793" data-name="Group 793">
        <path id="Path_2280" data-name="Path 2280" d="M67.938,106.4l-4.3-1.229a.437.437,0,0,1-.315-.418v-1.436a7.83,7.83,0,0,0,1-.817,7.664,7.664,0,0,0,2.346-5.544V94.973l.416-.832a6.646,6.646,0,0,0,.7-2.957V85.816a1.042,1.042,0,0,0-1.042-1.042H56.709A6.619,6.619,0,0,0,50.1,91.385v.062a5.526,5.526,0,0,0,.58,2.458l.534,1.067v1.7a8.128,8.128,0,0,0,3.342,6.572v1.505c0,.232,0,.328-.86.574l-2.1.6-6.073-2.208a1.041,1.041,0,0,0-.284-.8L43.3,100.881V97.458c.205-.169.407-.343.6-.526a12.227,12.227,0,0,0,3.852-8.888V85.31a12.042,12.042,0,0,0,1.114-5.064V69.108a1.042,1.042,0,0,0-1.042-1.042H32.23a9.964,9.964,0,0,0-9.953,9.953v2.228a12.042,12.042,0,0,0,1.114,5.064v2.352a12.729,12.729,0,0,0,4.456,9.716v3.5l-1.941,2.039a1.041,1.041,0,0,0-.284.8l-6.41,2.331a5.463,5.463,0,0,0-1.288.675l-1.006-.5a7.957,7.957,0,0,0,3.991-3.229,1.041,1.041,0,0,0,0-.932c-.751-1.5-.842-4.255-.915-6.467-.024-.736-.047-1.432-.091-2.052-.355-5-4.154-8.765-8.836-8.765S2.585,88.542,2.23,93.539c-.044.62-.067,1.315-.091,2.052-.073,2.212-.164,4.965-.915,6.467a1.041,1.041,0,0,0,0,.932,7.955,7.955,0,0,0,3.995,3.227l-2.8,1.4A4.361,4.361,0,0,0,0,111.536v7.7a1.042,1.042,0,1,0,2.084,0v-7.7a2.287,2.287,0,0,1,1.271-2.057l3.481-1.741,1.211,1.151a4.381,4.381,0,0,0,6.039,0l1.211-1.151,1.135.568a5.486,5.486,0,0,0-.838,2.909v8.018a1.042,1.042,0,1,0,2.084,0v-8.018a3.424,3.424,0,0,1,2.247-3.208l6.758-2.457,2.813,4.22a2.148,2.148,0,0,0,1.581.949q.108.011.215.011a2.147,2.147,0,0,0,1.522-.631l1.716-1.716v10.851a1.042,1.042,0,0,0,2.084,0V108.381L38.33,110.1a2.146,2.146,0,0,0,1.522.632q.107,0,.215-.011a2.148,2.148,0,0,0,1.581-.949l2.813-4.22,6.758,2.457a3.424,3.424,0,0,1,2.247,3.208v8.018a1.042,1.042,0,1,0,2.084,0v-8.018a5.507,5.507,0,0,0-1.541-3.812l.257-.073a5.712,5.712,0,0,0,.969-.35l2.66,2.66v9.593a1.042,1.042,0,0,0,2.084,0v-9.593L62.62,107a2.478,2.478,0,0,0,.443.176l4.3,1.229a2.31,2.31,0,0,1,1.668,2.211v8.618a1.042,1.042,0,0,0,2.084,0v-8.618A4.4,4.4,0,0,0,67.938,106.4Zm-61.255-1.84a7.489,7.489,0,0,1-3.343-2.146,11.483,11.483,0,0,0,.594-2.495,7.768,7.768,0,0,0,2.75,3.392Zm5.968,2.819a2.3,2.3,0,0,1-3.169,0l-.969-.921a2.156,2.156,0,0,0,.253-1.017v-1.11a7.747,7.747,0,0,0,4.6,0v1.11a2.156,2.156,0,0,0,.253,1.018ZM11.067,102.6a5.648,5.648,0,0,1-5.641-5.641,1.035,1.035,0,0,0-1.213-1.026c0-.09.006-.179.009-.268.023-.716.046-1.393.087-1.973A7.734,7.734,0,0,1,6.415,88.83a6.473,6.473,0,0,1,9.3,0,7.734,7.734,0,0,1,2.106,4.857c.041.58.064,1.257.087,1.973l.006.186a9.361,9.361,0,0,0-5.146-3.76,13.074,13.074,0,0,0-3.962-.628,1.042,1.042,0,0,0-.721.318L6.21,93.725a1.042,1.042,0,1,0,1.5,1.446L9.274,93.55c1.347.066,5.68.57,7.365,4.281A5.628,5.628,0,0,1,11.067,102.6Zm4.383,1.966V103.32a7.706,7.706,0,0,0,2.75-3.4,11.468,11.468,0,0,0,.593,2.489A7.525,7.525,0,0,1,15.45,104.563Zm10.025-16.9V85.077a1.042,1.042,0,0,0-.1-.453,9.993,9.993,0,0,1-1.01-4.378V78.019A7.878,7.878,0,0,1,32.23,70.15H46.783v10.1a9.993,9.993,0,0,1-1.01,4.378,1.042,1.042,0,0,0-.1.453v2.966a10,10,0,0,1-3.193,7.368,10.37,10.37,0,0,1-.8.677l-.018.013a10.017,10.017,0,0,1-6.76,2.017A10.318,10.318,0,0,1,25.475,87.662Zm5.866,20.962a.065.065,0,0,1-.058.021.066.066,0,0,1-.053-.032l-3.24-4.86,1.043-1.1,4.915,3.36Zm4.231-4.02-5.641-3.856V98.8a11.73,11.73,0,0,0,4.833,1.4q.412.027.82.027a12.067,12.067,0,0,0,5.631-1.38v1.9Zm4.342,4.009a.066.066,0,0,1-.053.032.064.064,0,0,1-.058-.021L37.2,106.017l4.915-3.36,1.043,1.1Zm19.023-.879-2.364-2.364a2.859,2.859,0,0,0,.064-.619v-.44a7.3,7.3,0,0,0,2.063.364c.08,0,.16,0,.24,0a7.738,7.738,0,0,0,2.3-.347v.419a2.491,2.491,0,0,0,.075.607ZM62.865,101a5.6,5.6,0,0,1-4.1,1.59A5.832,5.832,0,0,1,53.3,96.674V94.727a1.041,1.041,0,0,0-.11-.466l-.644-1.287a3.432,3.432,0,0,1-.36-1.527v-.062a4.533,4.533,0,0,1,4.528-4.528h8.983v4.327a4.552,4.552,0,0,1-.478,2.025l-.526,1.052a1.041,1.041,0,0,0-.11.466v2.228A5.6,5.6,0,0,1,62.865,101Z" transform="translate(0 -68.066)" fill="#ce2e6c"/>
      </g>
    </g>
    <g id="Group_796" data-name="Group 796" transform="translate(64.578 43.441)">
      <g id="Group_795" data-name="Group 795">
        <path id="Path_2281" data-name="Path 2281" d="M465.965,380.814a1.042,1.042,0,0,0-1.042,1.042v6.683a1.042,1.042,0,0,0,2.083,0v-6.683A1.042,1.042,0,0,0,465.965,380.814Z" transform="translate(-464.923 -380.814)" fill="#ce2e6c"/>
      </g>
    </g>
    <g id="Group_798" data-name="Group 798" transform="translate(4.456 44.818)">
      <g id="Group_797" data-name="Group 797">
        <path id="Path_2282" data-name="Path 2282" d="M33.119,390.728a1.042,1.042,0,0,0-1.042,1.042v5.306a1.042,1.042,0,0,0,2.084,0V391.77A1.042,1.042,0,0,0,33.119,390.728Z" transform="translate(-32.077 -390.728)" fill="#ce2e6c"/>
      </g>
    </g>
    <g id="Group_800" data-name="Group 800" transform="translate(26.733 9.464)">
      <g id="Group_799" data-name="Group 799">
        <path id="Path_2283" data-name="Path 2283" d="M209.833,139.3c-3.94-3.94-12.184-3.187-15.545-2.68a2.139,2.139,0,0,0-1.827,2.131v2.4a1.042,1.042,0,1,0,2.084,0v-2.4a.069.069,0,0,1,.054-.07,32.913,32.913,0,0,1,6.768-.331c3.249.216,5.6,1.032,6.994,2.424a1.042,1.042,0,0,0,1.473-1.473Z" transform="translate(-192.46 -136.203)" fill="#ce2e6c"/>
      </g>
    </g>
    <g id="Group_802" data-name="Group 802" transform="translate(22.277 45.669)">
      <g id="Group_801" data-name="Group 801">
        <path id="Path_2284" data-name="Path 2284" d="M161.426,396.853a1.042,1.042,0,0,0-1.042,1.042v4.456a1.042,1.042,0,0,0,2.084,0v-4.456A1.042,1.042,0,0,0,161.426,396.853Z" transform="translate(-160.384 -396.853)" fill="#ce2e6c"/>
      </g>
    </g>
    <g id="Group_804" data-name="Group 804" transform="translate(46.783 45.669)">
      <g id="Group_803" data-name="Group 803">
        <path id="Path_2285" data-name="Path 2285" d="M337.848,396.853a1.042,1.042,0,0,0-1.042,1.042v4.456a1.042,1.042,0,0,0,2.083,0v-4.456A1.042,1.042,0,0,0,337.848,396.853Z" transform="translate(-336.806 -396.853)" fill="#ce2e6c"/>
      </g>
    </g>
  </g>
</svg>
