<svg id="shopping-list" xmlns="http://www.w3.org/2000/svg" width="55.835" height="74.446" viewBox="0 0 55.835 74.446">
  <g id="Group_314" data-name="Group 314" transform="translate(9.309 27.919)">
    <g id="Group_313" data-name="Group 313">
      <path id="Path_2093" data-name="Path 2093" d="M145.953,192.691a2.334,2.334,0,0,0-3.294,0L135,200.349l-3.006-3.01a2.326,2.326,0,1,0-3.29,3.29l4.653,4.653a2.3,2.3,0,0,0,1.642.684,2.337,2.337,0,0,0,1.647-.679l9.306-9.306A2.328,2.328,0,0,0,145.953,192.691Z" transform="translate(-128.024 -192.008)" fill="#8d3109"/>
    </g>
  </g>
  <g id="Group_316" data-name="Group 316" transform="translate(9.309 46.53)">
    <g id="Group_315" data-name="Group 315">
      <path id="Path_2094" data-name="Path 2094" d="M145.953,320.691a2.334,2.334,0,0,0-3.294,0L135,328.349l-3.006-3.006a2.326,2.326,0,1,0-3.29,3.29l4.653,4.653a2.331,2.331,0,0,0,3.29,0l9.306-9.306A2.328,2.328,0,0,0,145.953,320.691Z" transform="translate(-128.024 -320.008)" fill="#8d3109"/>
    </g>
  </g>
  <g id="Group_318" data-name="Group 318" transform="translate(32.57 32.57)">
    <g id="Group_317" data-name="Group 317">
      <path id="Path_2095" data-name="Path 2095" d="M299.632,224h-9.306a2.326,2.326,0,1,0,0,4.653h9.306a2.326,2.326,0,0,0,0-4.653Z" transform="translate(-288 -224)" fill="#8d3109"/>
    </g>
  </g>
  <g id="Group_320" data-name="Group 320" transform="translate(32.57 51.182)">
    <g id="Group_319" data-name="Group 319">
      <path id="Path_2096" data-name="Path 2096" d="M299.632,352h-9.306a2.326,2.326,0,1,0,0,4.653h9.306a2.326,2.326,0,0,0,0-4.653Z" transform="translate(-288 -352)" fill="#8d3109"/>
    </g>
  </g>
  <g id="Group_322" data-name="Group 322">
    <g id="Group_321" data-name="Group 321">
      <path id="Path_2097" data-name="Path 2097" d="M115.182,9.306h-9.306V6.979a2.327,2.327,0,0,0-2.326-2.326H98.5a6.985,6.985,0,0,0-13.168,0H80.285a2.327,2.327,0,0,0-2.326,2.326V9.306H68.653A4.661,4.661,0,0,0,64,13.959V69.793a4.661,4.661,0,0,0,4.653,4.653h46.529a4.661,4.661,0,0,0,4.653-4.653V13.959A4.661,4.661,0,0,0,115.182,9.306Zm-32.57,0h4.653a2.327,2.327,0,0,0,2.326-2.326,2.326,2.326,0,0,1,4.653,0A2.327,2.327,0,0,0,96.57,9.306h4.653v4.653H82.612Zm32.57,60.488H68.653V13.959h9.306v2.326a2.327,2.327,0,0,0,2.326,2.326H103.55a2.327,2.327,0,0,0,2.326-2.326V13.959h9.306Z" transform="translate(-64)" fill="#8d3109"/>
    </g>
  </g>
</svg>
