<svg xmlns="http://www.w3.org/2000/svg" width="7.847" height="13.036" viewBox="0 0 7.847 13.036">
  <path id="Path_2416" data-name="Path 2416" d="M7308.735,3163.265l5.029,5.22-5.029,4.988" transform="translate(-7307.321 -3161.851)" fill="none" stroke="#5a4e63" stroke-linecap="round" stroke-width="2"/>
</svg>
