<svg id="Group_329" data-name="Group 329" xmlns="http://www.w3.org/2000/svg" width="39" height="28" viewBox="0 0 39 28">
  <rect id="Rectangle_1506" data-name="Rectangle 1506" width="39" height="6" rx="3" fill="#504658"/>
  <rect id="Rectangle_1507" data-name="Rectangle 1507" width="39" height="6" rx="3" transform="translate(0 11)" fill="#504658"/>
  <rect id="Rectangle_1508" data-name="Rectangle 1508" width="39" height="6" rx="3" transform="translate(0 22)" fill="#504658"/>
</svg>
