<svg xmlns="http://www.w3.org/2000/svg" width="17.941" height="10.263" viewBox="0 0 17.941 10.263">
  <path id="Path_2107" data-name="Path 2107" d="M0,0,7.445,7.729,0,15.113" transform="translate(16.527 1.414) rotate(90)" fill="none" stroke="#656565" stroke-linecap="round" stroke-width="2"/>
</svg>
