<svg xmlns="http://www.w3.org/2000/svg" width="24.688" height="23.243" viewBox="0 0 24.688 23.243">
  <g id="folder" transform="translate(0)">
    <path id="Path_2170" data-name="Path 2170" d="M2.625,19.907H13.394a5.949,5.949,0,1,0,7.4-8.2V7.894a2.629,2.629,0,0,0-2.626-2.626h-.117V5.2a2.629,2.629,0,0,0-2.626-2.626h-4.2A.169.169,0,0,1,11.1,2.52L9.581.855A2.632,2.632,0,0,0,7.643,0H2.625A2.629,2.629,0,0,0,0,2.626V17.281a2.629,2.629,0,0,0,2.626,2.626Zm21.284-2.613a5.171,5.171,0,1,1-5.171-5.171A5.171,5.171,0,0,1,23.909,17.293ZM18.169,6.046a1.849,1.849,0,0,1,1.848,1.847v3.589a5.95,5.95,0,0,0-6.938,7.645H4.725a2.617,2.617,0,0,0,.762-1.847V7.894A1.849,1.849,0,0,1,7.334,6.046ZM.778,2.626A1.849,1.849,0,0,1,2.625.778H7.643a1.852,1.852,0,0,1,1.364.6l1.522,1.665a.949.949,0,0,0,.7.309h4.2A1.85,1.85,0,0,1,17.274,5.2v.066H7.334A2.628,2.628,0,0,0,4.708,7.894v9.387A1.85,1.85,0,0,1,2.86,19.128H2.625A1.849,1.849,0,0,1,.778,17.281Zm0,0" transform="translate(0 0)" fill="#8d8d8d"/>
    <path id="Path_2171" data-name="Path 2171" d="M297.044,261.8l-1.946,1.811a.389.389,0,1,0,.53.57l1.292-1.2v3.812a.389.389,0,1,0,.778,0v-3.812l1.292,1.2a.389.389,0,0,0,.53-.57l-1.946-1.811A.389.389,0,0,0,297.044,261.8Zm0,0" transform="translate(-278.571 -247.144)" fill="#8d8d8d"/>
  </g>
</svg>
