<svg xmlns="http://www.w3.org/2000/svg" width="69.115" height="37.848" viewBox="0 0 69.115 37.848">
  <g id="Group_1227" data-name="Group 1227" transform="translate(0 0)">
    <g id="Group_1215" data-name="Group 1215" transform="translate(18.212 0)">
      <g id="Group_1212" data-name="Group 1212" transform="translate(6.599)">
        <g id="Group_1211" data-name="Group 1211">
          <path id="Path_2365" data-name="Path 2365" d="M398.1,268.271q0,.314-.022.627c-.007.1-.022.2-.03.306-.03.358.067-.344,0,.007a9.274,9.274,0,0,1-.314,1.27c-.015.052-.112.448-.172.463.022-.06.052-.119.075-.172a1.907,1.907,0,0,1-.082.179c-.037.09-.082.179-.127.269a8.987,8.987,0,0,1-.657,1.09l-.06.082c-.1.127-.075.1.06-.067-.007.052-.149.187-.187.224-.1.127-.217.246-.329.358-.134.142-.276.276-.418.411l-.217.194-.149.127c-.127.1-.1.082.075-.052-.022.1-.4.284-.478.336-.164.1-.336.209-.508.3a4.883,4.883,0,0,1-.441.224.957.957,0,0,1-.269.12c.2-.09.232-.1.082-.037l-.187.067a7.582,7.582,0,0,1-1.158.321c-.1.022-.2.037-.3.052-.351.067.351-.03-.007,0-.209.022-.411.037-.62.045a9.947,9.947,0,0,1-1.247-.045c-.358-.03.344.067-.007,0-.1-.022-.2-.037-.3-.052-.217-.045-.426-.1-.635-.157-.179-.052-.351-.1-.523-.172a1.329,1.329,0,0,1-.276-.1c.06.022.12.052.172.075a1.907,1.907,0,0,1-.179-.082,7.7,7.7,0,0,1-1.113-.62c-.067-.045-.388-.2-.4-.284.052.037.1.075.149.112-.052-.037-.1-.082-.149-.12-.075-.06-.149-.127-.224-.187a8.452,8.452,0,0,1-.881-.911.518.518,0,0,1-.06-.075c-.1-.127-.082-.1.052.075-.045-.007-.149-.2-.172-.239-.09-.134-.179-.269-.269-.411a5.736,5.736,0,0,1-.291-.515c-.045-.09-.09-.172-.134-.261-.03-.06-.052-.12-.082-.179-.067-.149-.052-.119.037.082-.075-.03-.172-.478-.2-.56-.06-.194-.112-.381-.164-.575-.037-.164-.075-.329-.1-.493a.435.435,0,0,1-.015-.1c-.022-.164-.022-.134.007.1a1.073,1.073,0,0,1-.037-.411,8.7,8.7,0,0,1,0-1.247c.008-.1.022-.2.03-.306.03-.358-.067.344,0-.007.037-.2.075-.4.119-.6a5.053,5.053,0,0,1,.164-.575c.03-.082.127-.53.2-.56-.022.06-.052.119-.075.172a1.912,1.912,0,0,1,.082-.179c.037-.09.082-.179.127-.269.1-.2.217-.4.336-.6a4.853,4.853,0,0,1,.269-.411c.022-.037.127-.232.172-.239-.037.052-.075.1-.112.149.037-.052.082-.1.119-.149a7.811,7.811,0,0,1,.881-.911c.075-.067.149-.127.224-.187.03-.022.284-.2.075-.067s.06-.037.082-.06c.082-.06.157-.112.239-.164a8.476,8.476,0,0,1,1.113-.62.458.458,0,0,1,.09-.037c.149-.067.12-.052-.082.037a1.331,1.331,0,0,1,.276-.1c.157-.06.314-.1.471-.157.194-.06.388-.1.582-.149.1-.022.2-.037.3-.06a1.865,1.865,0,0,1,.2-.03c-.232.03-.261.037-.09.015a9.947,9.947,0,0,1,1.247-.045c.172.007.344.015.515.037.037,0,.067.007.1.007.164.022.134.015-.09-.015.037-.03.344.06.4.067a9.255,9.255,0,0,1,1.344.4c.329.119-.306-.142.007,0,.1.052.209.1.314.149.187.1.381.194.56.306s.388.239.575.373l.082.06c.127.1.1.075-.067-.06.075.007.239.194.3.246a8.385,8.385,0,0,1,.889.9c.037.045.179.172.187.224-.134-.172-.149-.194-.06-.067l.112.157c.127.187.254.381.366.575s.224.4.321.6a.956.956,0,0,1,.119.269c-.082-.187-.1-.232-.06-.127.015.045.037.09.052.142a7.713,7.713,0,0,1,.373,1.352,1.144,1.144,0,0,1,.052.3c-.03-.232-.037-.261-.015-.09l.022.2c.022.232.03.47.03.717a1.494,1.494,0,1,0,2.987,0,9.73,9.73,0,0,0-17.169-6.266,10.009,10.009,0,0,0-2.27,5.594,9.7,9.7,0,0,0,5.564,9.477,10.044,10.044,0,0,0,6.124.724,9.75,9.75,0,0,0,7.6-7.894,10.9,10.9,0,0,0,.142-1.635,1.49,1.49,0,1,0-2.98,0Z" transform="translate(-381.621 -258.543)" fill="#5a4e63"/>
        </g>
      </g>
      <g id="Group_1214" data-name="Group 1214" transform="translate(0 16.308)">
        <g id="Group_1213" data-name="Group 1213">
          <path id="Path_2366" data-name="Path 2366" d="M318.934,479.7c.179.119.366.239.538.366.067.045.366.224.045.03.09.052.172.142.254.2a9.583,9.583,0,0,1,1.008.978,4.3,4.3,0,0,1,.418.493c-.2-.329-.015-.022.03.045.067.09.127.179.187.269a10.465,10.465,0,0,1,.709,1.225c.045.1.09.2.142.3.157.329-.082-.217,0,0,.075.187.142.373.209.568a9,9,0,0,1,.358,1.4,1.663,1.663,0,0,1,.052.336c0-.4-.007-.03,0,.052.022.232.037.456.045.687.008.149.008.3.008.448v6.788a.49.49,0,0,1-.008.1c-.015.164-.007.134.015-.09a1.18,1.18,0,0,1-.06.3,1.406,1.406,0,0,1-.09.284c.022-.06.052-.112.075-.172-.03.06-.052.119-.082.179a2.848,2.848,0,0,1-.149.254c-.037.052-.075.112-.112.164.134-.172.149-.194.052-.075-.067.067-.134.142-.2.209a.684.684,0,0,1-.075.067c-.119.1-.1.09.075-.052,0,.082-.433.261-.508.306-.291.157.314-.082-.015,0-.1.022-.194.06-.291.082l-.1.022c-.164.03-.134.022.09-.007-.015.03-.284.015-.314.015H297.949c.157,0-.358-.007-.209-.007-.351,0,.321.09-.008,0-.1-.022-.194-.045-.291-.075-.03-.008-.067-.022-.1-.03-.149-.06-.127-.045.075.045-.1.03-.426-.232-.515-.291-.284-.172.224.224-.007-.007l-.276-.276c-.232-.232.164.276-.007-.007-.052-.082-.1-.164-.157-.254a1.012,1.012,0,0,1-.134-.269c.022.06.052.112.075.172a1.806,1.806,0,0,1-.06-.187c-.03-.1-.045-.194-.075-.291-.082-.336,0,.336,0-.008,0-.075-.007-.149-.007-.224-.022-1.9,0-3.816,0-5.728v-1.277c.007-.231.015-.463.037-.694a2.684,2.684,0,0,1,.037-.344c-.09.418.015-.082.03-.164a9.744,9.744,0,0,1,.329-1.3c.06-.172.12-.351.187-.523.03-.075.119-.418.015-.052a2.116,2.116,0,0,1,.187-.4,11.418,11.418,0,0,1,.65-1.135,4.5,4.5,0,0,1,.373-.53c-.261.284-.015.022.037-.037.09-.112.187-.224.284-.329a10.65,10.65,0,0,1,.926-.911c.082-.067.164-.142.246-.209.284-.239-.261.179.037-.03.179-.127.351-.254.538-.373a1.5,1.5,0,1,0-1.509-2.584,11.807,11.807,0,0,0-5.4,9.865c-.007,1.994,0,4,0,5.989a5.507,5.507,0,0,0,.851,3.435,4.79,4.79,0,0,0,3.928,2c1.24.007,2.479,0,3.712,0h18.969a6.5,6.5,0,0,0,1.777-.172,4.743,4.743,0,0,0,3.42-4.526c.022-1.979,0-3.958,0-5.93a15.687,15.687,0,0,0-.306-3.495,11.641,11.641,0,0,0-2.875-5.332,11.84,11.84,0,0,0-2.3-1.882,1.513,1.513,0,0,0-2.046.538,1.549,1.549,0,0,0,.545,2.054Z" transform="translate(-293.256 -476.91)" fill="#5a4e63"/>
        </g>
      </g>
    </g>
    <g id="Group_1226" data-name="Group 1226" transform="translate(0 10.131)">
      <g id="Group_1220" data-name="Group 1220" transform="translate(51.122)">
        <g id="Group_1217" data-name="Group 1217">
          <g id="Group_1216" data-name="Group 1216">
            <path id="Path_2367" data-name="Path 2367" d="M744.652,401.065c0,.142-.007.276-.015.411-.008.052-.008.1-.015.157-.015.209.052-.3.015-.1a6.923,6.923,0,0,1-.187.777,1.563,1.563,0,0,1-.12.329s.134-.291.037-.082c-.03.06-.052.12-.082.179a7.546,7.546,0,0,1-.4.665c-.142.217.187-.209-.03.045-.075.082-.149.172-.224.254a3.107,3.107,0,0,1-.276.269c-.045.045-.1.09-.142.127a.532.532,0,0,1-.075.06h0c.12-.03.082-.06-.007,0-.052.037-.1.075-.164.112-.112.075-.217.134-.336.2-.1.052-.2.1-.306.157-.015.008-.12.067-.134.06.194-.082.232-.1.127-.06-.045.015-.09.037-.142.052a4.96,4.96,0,0,1-.672.187c-.067.015-.135.022-.2.037-.127.03-.194-.03.1-.007-.134-.008-.276.03-.411.03-.261.008-.515-.007-.777-.022-.209-.015.3.052.1.015a1.06,1.06,0,0,1-.149-.03c-.149-.03-.291-.06-.44-.1-.112-.03-.224-.067-.329-.1a1.128,1.128,0,0,1-.187-.067c0-.007.343.164.082.037a6.06,6.06,0,0,1-.679-.381c-.052-.037-.1-.075-.164-.112-.082-.052-.127-.03-.007,0,.157.037.045.037-.037-.037a1.264,1.264,0,0,1-.112-.1,5.348,5.348,0,0,1-.575-.59c-.217-.254.1.172-.03-.045-.067-.112-.149-.217-.209-.329s-.112-.194-.164-.3l-.067-.135a1.033,1.033,0,0,1-.06-.134c-.045-.1-.03-.06.052.127-.067-.007-.194-.59-.216-.657-.03-.127-.06-.261-.082-.4-.007-.045-.03-.217,0,0,.03.246,0-.052-.007-.1a4.5,4.5,0,0,1,0-.777,1.836,1.836,0,0,0,.015-.2c.007-.172-.022.142-.022.142a4.328,4.328,0,0,0,.089-.448c.015-.075.157-.7.224-.709.008,0-.164.344-.037.082l.067-.134c.067-.134.134-.261.209-.388.06-.1.127-.194.187-.284.2-.306-.142.149.03-.045a7.163,7.163,0,0,1,.568-.6c.045-.045.2-.224.261-.217,0,0-.306.217-.067.06.052-.037.1-.075.164-.112a7.539,7.539,0,0,1,.68-.381c.232-.12-.3.1.052-.015.112-.037.216-.075.329-.1s.254-.067.388-.1c.052-.008.1-.022.149-.03.232-.045.1.015-.045,0,.246.03.523-.037.777-.03.119,0,.239.015.359.022.3.022-.1-.007-.1-.015a1.011,1.011,0,0,1,.246.045,7.773,7.773,0,0,1,.814.232c.276.09-.09-.037-.082-.037s.2.09.224.1c.134.067.261.134.388.209s.217.142.329.209c.187.119-.037-.06-.067-.06.045,0,.157.127.187.157a5.35,5.35,0,0,1,.582.583c.023.022.127.134.12.149.007-.052-.194-.276-.03-.03.067.112.142.217.209.329s.142.254.209.388a.906.906,0,0,1,.082.179c.007-.007-.112-.314-.037-.082a6.728,6.728,0,0,1,.247.866,1.9,1.9,0,0,0,.037.2c-.03-.075-.03-.3-.015-.1-.008.194.007.358.007.538a1.494,1.494,0,1,0,2.987,0,6.977,6.977,0,0,0-4.578-6.467,6.863,6.863,0,0,0-7.49,2.009,6.854,6.854,0,1,0,12.068,4.451,1.508,1.508,0,0,0-1.494-1.494A1.535,1.535,0,0,0,744.652,401.065Z" transform="translate(-733.938 -394.202)" fill="#5a4e63"/>
          </g>
        </g>
        <g id="Group_1219" data-name="Group 1219" transform="translate(1.303 10.639)">
          <g id="Group_1218" data-name="Group 1218">
            <path id="Path_2368" data-name="Path 2368" d="M762.742,539.446c.067.045.358.314.44.306-.127.007-.2-.164-.007,0l.2.179c.12.112.231.224.344.336.09.1.261.4.388.448-.037-.045-.067-.09-.1-.135a1.552,1.552,0,0,0,.1.135c.052.075.1.149.149.224.1.149.187.306.276.463.037.067.067.127.1.194.008.015.172.336.06.12s.037.1.045.127c.037.1.075.209.1.314.052.179.1.351.142.53.015.075.03.142.045.217.007.022.067.381.03.134s.008.119.015.142c.007.075.015.149.015.224.008.12.008.239.008.359v4.511c-.015.172-.008.134.015-.1,0,0-.052.209-.045.194-.052.291.134-.172.022-.037a1.913,1.913,0,0,0-.12.209c-.134.239.217-.187-.007,0a1.266,1.266,0,0,1-.142.134c.052-.037.1-.075.149-.112a1.2,1.2,0,0,1-.164.1,1.284,1.284,0,0,1-.172.09c-.015-.022.336-.1.03-.03-.187.045-.194-.037.052.015a2.017,2.017,0,0,0-.209.007h-11.62a1.494,1.494,0,0,0,0,2.987h9.313c1.419,0,3.151.232,4.354-.65a3.645,3.645,0,0,0,1.516-2.711c.022-.239.008-.486.008-.724v-2.8a11.526,11.526,0,0,0-.329-3.39,8.25,8.25,0,0,0-3.5-4.593,1.506,1.506,0,0,0-2.046.538,1.548,1.548,0,0,0,.553,2.039Z" transform="translate(-751.382 -536.666)" fill="#5a4e63"/>
          </g>
        </g>
      </g>
      <g id="Group_1225" data-name="Group 1225">
        <g id="Group_1222" data-name="Group 1222" transform="translate(4.29)">
          <g id="Group_1221" data-name="Group 1221">
            <path id="Path_2369" data-name="Path 2369" d="M117.552,401.065c0,.142-.007.276-.015.411-.007.052-.007.1-.015.157-.015.209.052-.3.015-.1a6.92,6.92,0,0,1-.187.777,1.562,1.562,0,0,1-.12.329s.134-.291.037-.082c-.03.06-.052.12-.082.179a7.5,7.5,0,0,1-.4.665c-.142.217.187-.209-.03.045-.075.082-.149.172-.224.254a3.122,3.122,0,0,1-.276.269c-.045.045-.1.09-.142.127a.522.522,0,0,1-.075.06h0c.119-.03.082-.06-.007,0-.052.037-.1.075-.164.112-.112.075-.217.134-.336.2-.1.052-.2.1-.306.157-.015.008-.119.067-.134.06.194-.082.232-.1.127-.06-.045.015-.09.037-.142.052a4.958,4.958,0,0,1-.672.187c-.067.015-.134.022-.2.037-.127.03-.194-.03.1-.007-.134-.008-.276.03-.411.03-.261.008-.515-.007-.777-.022-.209-.015.3.052.1.015a1.061,1.061,0,0,1-.149-.03c-.149-.03-.291-.06-.441-.1-.112-.03-.224-.067-.329-.1a1.131,1.131,0,0,1-.187-.067c0-.007.344.164.082.037a6.077,6.077,0,0,1-.68-.381c-.052-.037-.1-.075-.164-.112-.082-.052-.127-.03-.007,0,.157.037.045.037-.037-.037a1.291,1.291,0,0,1-.112-.1,5.355,5.355,0,0,1-.575-.59c-.217-.254.1.172-.03-.045-.067-.112-.149-.217-.209-.329s-.112-.194-.164-.3l-.067-.135a1.055,1.055,0,0,1-.06-.134c-.045-.1-.03-.06.052.127-.067-.007-.194-.59-.217-.657-.03-.127-.06-.261-.082-.4-.007-.045-.03-.217,0,0,.03.246,0-.052-.007-.1a4.494,4.494,0,0,1,0-.777,1.83,1.83,0,0,0,.015-.2c.007-.172-.022.142-.022.142a4.32,4.32,0,0,0,.09-.448c.015-.075.157-.7.224-.709.007,0-.164.344-.037.082l.067-.134c.067-.134.134-.261.209-.388.06-.1.127-.194.187-.284.2-.306-.142.149.03-.045a7.168,7.168,0,0,1,.568-.6c.045-.045.2-.224.261-.217,0,0-.306.217-.067.06.052-.037.1-.075.164-.112a7.543,7.543,0,0,1,.68-.381c.232-.12-.3.1.052-.015.112-.037.217-.075.329-.1s.254-.067.388-.1c.052-.008.1-.022.149-.03.232-.045.1.015-.045,0,.246.03.523-.037.777-.03.12,0,.239.015.358.022.3.022-.1-.007-.1-.015a1.013,1.013,0,0,1,.246.045,7.768,7.768,0,0,1,.814.232c.276.09-.09-.037-.082-.037s.2.09.224.1c.134.067.261.134.388.209s.217.142.329.209c.187.119-.037-.06-.067-.06.045,0,.157.127.187.157a5.36,5.36,0,0,1,.582.583c.022.022.127.134.12.149.007-.052-.194-.276-.03-.03.067.112.142.217.209.329s.142.254.209.388a.909.909,0,0,1,.082.179c.007-.007-.112-.314-.037-.082a6.76,6.76,0,0,1,.246.866,1.9,1.9,0,0,0,.037.2c-.03-.075-.03-.3-.015-.1-.007.194,0,.358.007.538a1.494,1.494,0,1,0,2.987,0,6.977,6.977,0,0,0-4.578-6.467,6.863,6.863,0,0,0-7.49,2.009,6.854,6.854,0,1,0,12.068,4.451,1.508,1.508,0,0,0-1.494-1.494A1.529,1.529,0,0,0,117.552,401.065Z" transform="translate(-106.838 -394.202)" fill="#5a4e63"/>
          </g>
        </g>
        <g id="Group_1224" data-name="Group 1224" transform="translate(0 10.665)">
          <g id="Group_1223" data-name="Group 1223">
            <path id="Path_2370" data-name="Path 2370" d="M64.56,549.066H52.9c-.381-.015.217.09-.052-.007-.022-.007-.194-.045-.187-.06.007-.037.306.187.045.008-.022-.015-.209-.112-.2-.127.022-.06.232.231.082.052l-.067-.067c-.082-.1-.09-.1-.007.008.022.022.037.052.06.075a1.231,1.231,0,0,1-.1-.164,1.8,1.8,0,0,1-.09-.172c.082.209.1.232.045.082a.989.989,0,0,1-.037-.142c-.09-.149,0,.359.007.045V544.07c0-.232.015-.463.037-.687.015-.239.037.045-.007.06.007,0,.06-.314.06-.336.045-.217.1-.433.172-.65.022-.067.045-.142.067-.209.06-.164.09-.284.007-.052a4.518,4.518,0,0,1,.575-1.053,1.331,1.331,0,0,1,.187-.269c-.037.045-.067.09-.1.134.045-.06.09-.112.134-.164a5.508,5.508,0,0,1,.4-.433c.142-.142.291-.269.441-.4.209-.179-.022.007-.045.037a1.525,1.525,0,0,1,.358-.246,1.5,1.5,0,0,0-1.509-2.584,8.374,8.374,0,0,0-3.3,4.13,9.132,9.132,0,0,0-.47,3.234v2.868a5.3,5.3,0,0,0,.485,2.838,3.679,3.679,0,0,0,3.234,1.77H64.583a1.508,1.508,0,0,0,1.494-1.494,1.56,1.56,0,0,0-1.516-1.5Z" transform="translate(-49.392 -537.014)" fill="#5a4e63"/>
          </g>
        </g>
      </g>
    </g>
  </g>
</svg>
