<svg xmlns="http://www.w3.org/2000/svg" width="52.01" height="70" viewBox="0 0 52.01 70">
  <g id="paper" transform="translate(-11 -2)">
    <path id="Path_2591" data-name="Path 2591" d="M62.005,72H12a1,1,0,0,1-1-1V3a1,1,0,0,1,1-1H46.01a1,1,0,0,1,.707.292l16,15.991a1,1,0,0,1,.293.707V71a1,1,0,0,1-1,1ZM13,70H61.01V19.405L45.591,4H13Z" fill="#ce2e6c"/>
    <path id="Path_2592" data-name="Path 2592" d="M62.005,20.01h-16a1,1,0,0,1-1-1V3a1,1,0,0,1,2,0V18.01h15a1,1,0,0,1,0,2Z" fill="#ce2e6c"/>
    <path id="Path_2593" data-name="Path 2593" d="M55,38H19a1,1,0,0,1,0-2H55a1,1,0,0,1,0,2Z" fill="#ce2e6c"/>
    <path id="Path_2594" data-name="Path 2594" d="M55,30H19a1,1,0,0,1,0-2H55a1,1,0,0,1,0,2Z" fill="#ce2e6c"/>
    <path id="Path_2595" data-name="Path 2595" d="M40,22H19a1,1,0,0,1,0-2H40a1,1,0,0,1,0,2Z" fill="#ce2e6c"/>
    <path id="Path_2596" data-name="Path 2596" d="M40,14H19a1,1,0,0,1,0-2H40a1,1,0,0,1,0,2Z" fill="#ce2e6c"/>
    <path id="Path_2597" data-name="Path 2597" d="M37,62.625a22.763,22.763,0,0,1-17.109-7.96,1,1,0,0,1,0-1.33,22.367,22.367,0,0,1,34.218,0,1,1,0,0,1,0,1.33A22.763,22.763,0,0,1,37,62.625ZM22,54a20.3,20.3,0,0,0,30,0,20.3,20.3,0,0,0-30,0Z" fill="#ce2e6c"/>
    <path id="Path_2598" data-name="Path 2598" d="M37,62.584A8.584,8.584,0,1,1,45.584,54,8.584,8.584,0,0,1,37,62.584Zm0-15.168A6.584,6.584,0,1,0,43.584,54,6.584,6.584,0,0,0,37,47.416Z" fill="#ce2e6c"/>
    <path id="Path_2599" data-name="Path 2599" d="M37,57.906A3.906,3.906,0,1,1,40.906,54,3.906,3.906,0,0,1,37,57.906Zm0-5.812A1.906,1.906,0,1,0,38.906,54,1.906,1.906,0,0,0,37,52.094Z" fill="#ce2e6c"/>
  </g>
</svg>
