<svg id="line-chart" xmlns="http://www.w3.org/2000/svg" width="17.75" height="10.818" viewBox="0 0 17.75 10.818">
  <g id="Group_1718" data-name="Group 1718" transform="translate(0)">
    <path id="Path_2474" data-name="Path 2474" d="M17.6,47.318a.62.62,0,0,1-.47.171H17.07c-1.036-.047-2.068-.1-3.1-.146a.67.67,0,0,1-.478-.164.543.543,0,0,1-.113-.168.536.536,0,0,1,.164-.649L13.8,46.1c.179-.182.361-.365.543-.543L8.085,39.3,5.273,42.108a.894.894,0,0,1-1.265,0L.263,38.366a.893.893,0,0,1,0-1.265l.168-.168a.894.894,0,0,1,1.265,0l2.943,2.943L7.45,37.065a.9.9,0,0,1,1.269,0l7.06,7.059.8-.795A.6.6,0,0,1,17,43.1a.528.528,0,0,1,.255.069.7.7,0,0,1,.153.113.741.741,0,0,1,.193.514c.029.671.062,1.342.095,2.016l.047,1.01A.627.627,0,0,1,17.6,47.318Z" transform="translate(0 -36.671)" fill="#ff4e4e"/>
  </g>
</svg>
