<svg xmlns="http://www.w3.org/2000/svg" width="17.862" height="15.878" viewBox="0 0 17.862 15.878">
  <path id="Icon_awesome-hotel" data-name="Icon awesome-hotel" d="M17.366,1.985a.5.5,0,0,0,.5-.5V.5a.5.5,0,0,0-.5-.5H.5A.5.5,0,0,0,0,.5v.992a.5.5,0,0,0,.5.5h.5V13.893H.5a.5.5,0,0,0-.5.5v.992a.5.5,0,0,0,.5.5H7.939V13.4a.5.5,0,0,1,.5-.5h.992a.5.5,0,0,1,.5.5v2.481h7.443a.5.5,0,0,0,.5-.5v-.992a.5.5,0,0,0-.5-.5h-.5V1.985ZM7.939,3.374a.427.427,0,0,1,.4-.4H9.526a.427.427,0,0,1,.4.4V4.565a.427.427,0,0,1-.4.4H8.336a.427.427,0,0,1-.4-.4V3.374Zm0,2.977a.427.427,0,0,1,.4-.4H9.526a.427.427,0,0,1,.4.4V7.542a.427.427,0,0,1-.4.4H8.336a.427.427,0,0,1-.4-.4V6.351ZM3.969,3.374a.427.427,0,0,1,.4-.4H5.557a.427.427,0,0,1,.4.4V4.565a.427.427,0,0,1-.4.4H4.366a.427.427,0,0,1-.4-.4ZM5.557,7.939H4.366a.427.427,0,0,1-.4-.4V6.351a.427.427,0,0,1,.4-.4H5.557a.427.427,0,0,1,.4.4V7.542A.427.427,0,0,1,5.557,7.939Zm.4,3.969a2.977,2.977,0,1,1,5.954,0Zm7.939-4.366a.427.427,0,0,1-.4.4H12.305a.427.427,0,0,1-.4-.4V6.351a.427.427,0,0,1,.4-.4H13.5a.427.427,0,0,1,.4.4Zm0-2.977a.427.427,0,0,1-.4.4H12.305a.427.427,0,0,1-.4-.4V3.374a.427.427,0,0,1,.4-.4H13.5a.427.427,0,0,1,.4.4Z" fill="#5a4e63"/>
</svg>
