<svg id="_022-analysis" data-name="022-analysis" xmlns="http://www.w3.org/2000/svg" width="30.105" height="30.681" viewBox="0 0 30.105 30.681">
  <g id="Group_2943" data-name="Group 2943" transform="translate(0 0)">
    <g id="Group_2942" data-name="Group 2942" transform="translate(0 0)">
      <path id="Path_3154" data-name="Path 3154" d="M34.808,2.087a.452.452,0,0,0-.307-.159l-6.677-.57L27.7.4A.452.452,0,0,0,27.2,0L21,.783a.45.45,0,0,0-.075-.013L12.414.042a.456.456,0,0,0-.489.412L11.8,1.94,5.2,2.769a.456.456,0,0,0-.392.5L8.179,30.048a1.243,1.243,0,0,0,.039.358.456.456,0,0,0,.416.276H30.8a.452.452,0,0,0,.452-.452v-.588l.875.075a.456.456,0,0,0,.489-.412l2.3-26.888A.452.452,0,0,0,34.808,2.087ZM8.182,22.833,5.765,3.609l2.417-.3ZM12.788.981l3.954.338-4.026.506ZM26.862.957l.231,1.836H12.259Zm4.892,27.821-.5-.043v-13.2a.452.452,0,1,0-.9,0V29.778H9.086V3.7H30.349v9.728a.452.452,0,1,0,.9,0V3.245a.452.452,0,0,0-.452-.452H28l-.065-.518,6.035.515Z" transform="translate(-4.809 0)" fill="#8d8d8d"/>
    </g>
  </g>
  <g id="Group_2945" data-name="Group 2945" transform="translate(15.42 5.202)">
    <g id="Group_2944" data-name="Group 2944">
      <path id="Path_3155" data-name="Path 3155" d="M270.3,86.806h-2.409a.451.451,0,0,0-.376.2l-1.023,1.534a6.679,6.679,0,0,0-3.9-1.253.452.452,0,0,0-.452.452V94a.452.452,0,0,0,.452.452h6.265a.452.452,0,0,0,.452-.452,6.7,6.7,0,0,0-2.113-4.886l.939-1.409H270.3a.452.452,0,1,0,0-.9Zm-1.915,6.746h-5.344V88.209a5.779,5.779,0,0,1,2.949,1.085l-.4.6a.452.452,0,1,0,.752.5l.345-.518A5.8,5.8,0,0,1,268.384,93.552Z" transform="translate(-262.137 -86.806)" fill="#8d8d8d"/>
    </g>
  </g>
  <g id="Group_2947" data-name="Group 2947" transform="translate(7.228 7.611)">
    <g id="Group_2946" data-name="Group 2946">
      <path id="Path_3156" data-name="Path 3156" d="M141.784,139.542H137.7l-.72-1.152a6.693,6.693,0,0,0,1.885-4.661.452.452,0,0,0-.452-.452H132.6v-5.813a.452.452,0,0,0-.452-.452,6.716,6.716,0,1,0,4.151,11.993l.767,1.227a.452.452,0,0,0,.383.212h4.337a.452.452,0,0,0,0-.9Zm-6.363-3.643a.452.452,0,1,0-.766.479l1.16,1.857a5.812,5.812,0,1,1-4.12-10.3v5.8a.452.452,0,0,0,.452.452h5.8a5.79,5.79,0,0,1-1.46,3.416Z" transform="translate(-125.43 -127.013)" fill="#8d8d8d"/>
    </g>
  </g>
  <g id="Group_2949" data-name="Group 2949" transform="translate(5.783 22.55)">
    <g id="Group_2948" data-name="Group 2948">
      <path id="Path_3157" data-name="Path 3157" d="M105.613,376.3h-3.855a.452.452,0,0,0,0,.9h3.855a.452.452,0,0,0,0-.9Z" transform="translate(-101.306 -376.3)" fill="#8d8d8d"/>
    </g>
  </g>
  <g id="Group_2951" data-name="Group 2951" transform="translate(11.565 22.55)">
    <g id="Group_2950" data-name="Group 2950">
      <path id="Path_3158" data-name="Path 3158" d="M202.112,376.3h-3.855a.452.452,0,1,0,0,.9h3.855a.452.452,0,1,0,0-.9Z" transform="translate(-197.805 -376.3)" fill="#8d8d8d"/>
    </g>
  </g>
  <g id="Group_2953" data-name="Group 2953" transform="translate(5.783 24.959)">
    <g id="Group_2952" data-name="Group 2952" transform="translate(0)">
      <path id="Path_3159" data-name="Path 3159" d="M108.022,416.508h-6.265a.452.452,0,0,0,0,.9h6.265a.452.452,0,0,0,0-.9Z" transform="translate(-101.306 -416.508)" fill="#8d8d8d"/>
    </g>
  </g>
  <g id="Group_2955" data-name="Group 2955" transform="translate(13.975 24.959)">
    <g id="Group_2954" data-name="Group 2954">
      <path id="Path_3160" data-name="Path 3160" d="M239.909,416.508h-1.446a.452.452,0,1,0,0,.9h1.446a.452.452,0,0,0,0-.9Z" transform="translate(-238.012 -416.508)" fill="#8d8d8d"/>
    </g>
  </g>
  <g id="Group_2957" data-name="Group 2957" transform="translate(5.783 27.368)">
    <g id="Group_2956" data-name="Group 2956">
      <path id="Path_3161" data-name="Path 3161" d="M103.685,456.715h-1.928a.452.452,0,0,0,0,.9h1.928a.452.452,0,0,0,0-.9Z" transform="translate(-101.306 -456.715)" fill="#8d8d8d"/>
    </g>
  </g>
  <g id="Group_2959" data-name="Group 2959" transform="translate(9.638 27.368)">
    <g id="Group_2958" data-name="Group 2958">
      <path id="Path_3162" data-name="Path 3162" d="M171.873,456.715h-5.783a.452.452,0,0,0,0,.9h5.783a.452.452,0,1,0,0-.9Z" transform="translate(-165.639 -456.715)" fill="#8d8d8d"/>
    </g>
  </g>
</svg>
