<svg xmlns="http://www.w3.org/2000/svg" width="13.853" height="14.331" viewBox="0 0 13.853 14.331">
  <path id="Path_3241" data-name="Path 3241" d="M11.08,10.86c0,1.267.211,2.337-.832,2.707a13.957,13.957,0,0,1-2.046.277c-1.109.185-5.136.99-6.3.013-.753-.634-.093-1.281-.475-1.756-.185-.225-.422-.356-.555-.608-.185-.4-.04-.555.013-.911.145-.792-.713-.739-.528-1.716.093-.541.2-.343-.092-.858A1.432,1.432,0,0,1,0,7.163C.148,5.354,3.264,6.107,4.373,6.146A1.22,1.22,0,0,0,5.311,5.9c.053-.713-.647-1.083-1.03-2.126A3.913,3.913,0,0,1,4.1,1.1C4.505-.152,5.522-.191,5.892.271c.343.449.145,1.043.858,2.324C8.123,5.1,10.975,6.252,11.067,7.678,11.133,8.642,11.08,9.87,11.08,10.86Zm2.482-3.8c.383.132.277.462.277.9,0,.766.04,5.506-.026,5.691-.119.33-.542.237-.9.237a6.707,6.707,0,0,1-1.162-.026c-.33-.132-.238-.581-.238-.885,0-.766-.04-5.546.026-5.7a.347.347,0,0,1,.33-.224A11.976,11.976,0,0,1,13.563,7.057Z" transform="translate(0 0)" fill="#c5c5c5" fill-rule="evenodd"/>
</svg>
