<svg xmlns="http://www.w3.org/2000/svg" width="88" height="88" viewBox="0 0 88 88">
  <g id="_2227374866592" transform="translate(0 -0.471)">
    <circle id="Ellipse_123" data-name="Ellipse 123" cx="44" cy="44" r="44" transform="translate(0 0.471)" fill="#b5ee5f"/>
    <path id="Path_2504" data-name="Path 2504" d="M4150.525,11653.595c0,4.747-.75,8.846,3.148,10.245,2,.7,5.5.7,7.747,1.05,4.2.7,19.441,3.748,23.839.05,2.849-2.4.35-4.848,1.849-6.7.65-.8,1.6-1.3,2.049-2.249.75-1.5.2-2.1-.05-3.448-.55-3,2.749-2.8,2.049-6.5-.4-2.049-.75-1.3.3-3.248a5.44,5.44,0,0,0,1.049-3.2c-.55-6.848-12.344-4-16.592-3.9a4.6,4.6,0,0,1-3.548-.9c-.15-2.7,2.5-4.1,3.9-8.046,1.2-3.248,1.9-6.446.75-10.095-1.549-4.748-5.447-4.9-6.8-3.148-1.349,1.648-.6,3.947-3.249,8.8-5.248,9.5-15.992,13.843-16.392,19.241C4150.326,11645.2,4150.525,11649.847,4150.525,11653.595Zm-9.345-14.394c-1.5.5-1.1,1.749-1.1,3.4,0,2.9-.15,20.841.1,21.54.5,1.249,2.1.9,3.448.9a30.751,30.751,0,0,0,4.348-.1c1.25-.5.95-2.2.95-3.349,0-2.9.1-20.99-.15-21.59a1.36,1.36,0,0,0-1.2-.9A45.184,45.184,0,0,0,4141.18,11639.2Z" transform="translate(-4122.039 -11598.209)" fill="#fefefe" fill-rule="evenodd"/>
  </g>
</svg>
