<svg id="folder_2_" data-name="folder (2)" xmlns="http://www.w3.org/2000/svg" width="22.729" height="22.729" viewBox="0 0 22.729 22.729">
  <path id="Path_2353" data-name="Path 2353" d="M21.778,10.228H20.456V7.853a1.036,1.036,0,0,0-1.035-1.035h-.48V0H3.788V.758H2.652v.758H1.515V4.167h-.48A1.036,1.036,0,0,0,0,5.2V21.751H0a.967.967,0,0,0,.969.978H17.927a.961.961,0,0,0,.928-.687l3.874-10.621v-.067A1.015,1.015,0,0,0,21.778,10.228ZM19.421,7.576a.277.277,0,0,1,.277.277v2.374H18.94V7.576ZM18.183.758v9.47H4.823a.969.969,0,0,0-.255.037l-.022,0V.758ZM3.788,1.515v9.692l-.024.066-.355.973V1.515Zm-1.515.758h.379v12.05l-.379,1.038V2.273ZM.758,5.2a.278.278,0,0,1,.277-.277h.48V17.4L.758,19.47ZM18.133,21.813a.213.213,0,0,1-.206.158H.972a.209.209,0,0,1-.17-.084.205.205,0,0,1-.047-.155l.76-2.083h0l1.136-3.116h0l1.136-3.116h0l.732-2.008.026-.07h0l.061-.166.01-.031a.214.214,0,0,1,.206-.158H21.778c.144,0,.181.207.19.31Z" fill="#fff"/>
  <path id="Path_2354" data-name="Path 2354" d="M17.379,15.758H26.47a.379.379,0,1,0,0-.758H17.379a.379.379,0,1,0,0,.758Z" transform="translate(-10.56 -9.318)" fill="#fff"/>
  <path id="Path_2355" data-name="Path 2355" d="M17.379,8.758h3.788a.379.379,0,0,0,0-.758H17.379a.379.379,0,1,0,0,.758Z" transform="translate(-10.56 -4.97)" fill="#fff"/>
  <path id="Path_2356" data-name="Path 2356" d="M17.379,22.758H26.47a.379.379,0,1,0,0-.758H17.379a.379.379,0,1,0,0,.758Z" transform="translate(-10.56 -13.666)" fill="#fff"/>
</svg>
