<svg id="how_to_vote-24px" xmlns="http://www.w3.org/2000/svg" width="24.915" height="24.915" viewBox="0 0 24.915 24.915">
  <path id="Path_2318" data-name="Path 2318" d="M18.572,13.419h-.706L15.79,15.5h1.983l1.837,2.076H5.076L6.924,15.5H9.052L6.976,13.419H6.114L3,16.534v4.153a2.073,2.073,0,0,0,2.066,2.076H19.61a2.076,2.076,0,0,0,2.076-2.076V16.534ZM17.534,8.177,12.4,13.316,8.72,9.641,13.859,4.5ZM13.132,2.3,6.519,8.914a1.034,1.034,0,0,0,0,1.464l5.139,5.139a1.034,1.034,0,0,0,1.464,0l6.6-6.6a1.034,1.034,0,0,0,0-1.464L14.585,2.311A1.012,1.012,0,0,0,13.132,2.3Z" transform="translate(0.114 0.076)" fill="#fff"/>
  <path id="Path_2319" data-name="Path 2319" d="M0,0H24.915V24.915H0Z" fill="none"/>
</svg>
