<svg id="filter_none-24px" xmlns="http://www.w3.org/2000/svg" width="21.703" height="21.703" viewBox="0 0 21.703 21.703">
  <path id="Path_2320" data-name="Path 2320" d="M0,0H21.7V21.7H0Z" fill="none"/>
  <path id="Path_2321" data-name="Path 2321" d="M2.809,4.617H1V19.086a1.814,1.814,0,0,0,1.809,1.809H17.277V19.086H2.809ZM19.086,1H6.426A1.814,1.814,0,0,0,4.617,2.809v12.66a1.814,1.814,0,0,0,1.809,1.809h12.66a1.814,1.814,0,0,0,1.809-1.809V2.809A1.814,1.814,0,0,0,19.086,1Zm0,14.469H6.426V2.809h12.66Z" transform="translate(-0.096 -0.096)" fill="#fff"/>
</svg>
