<svg id="Group_478" data-name="Group 478" xmlns="http://www.w3.org/2000/svg" width="17.319" height="20.361" viewBox="0 0 17.319 20.361">
  <path id="Path_2100" data-name="Path 2100" d="M141.408,10.971h.135a3.891,3.891,0,0,0,2.973-1.286c1.623-1.83,1.353-4.967,1.324-5.266A4.3,4.3,0,0,0,143.795.595,4.688,4.688,0,0,0,141.526,0h-.072a4.7,4.7,0,0,0-2.268.578,4.3,4.3,0,0,0-2.07,3.841c-.029.3-.3,3.436,1.324,5.266A3.875,3.875,0,0,0,141.408,10.971Zm-3.167-6.447c0-.013,0-.025,0-.034.139-3.023,2.285-3.348,3.2-3.348h.051c1.138.025,3.074.489,3.2,3.348a.082.082,0,0,0,0,.034c0,.03.3,2.9-1.041,4.406a2.764,2.764,0,0,1-2.171.9h-.042a2.754,2.754,0,0,1-2.167-.9C137.951,7.429,138.238,4.549,138.242,4.524Z" transform="translate(-132.823)" fill="#fff"/>
  <path id="Path_2101" data-name="Path 2101" d="M53.391,264.487v-.013c0-.034,0-.067,0-.105-.025-.835-.08-2.787-1.91-3.411l-.042-.013a12.166,12.166,0,0,1-3.5-1.594.569.569,0,1,0-.654.932,13.132,13.132,0,0,0,3.85,1.758c.982.35,1.092,1.4,1.122,2.361a.847.847,0,0,0,0,.105,7.653,7.653,0,0,1-.089,1.3,15.517,15.517,0,0,1-7.433,1.729,15.607,15.607,0,0,1-7.438-1.733,7.246,7.246,0,0,1-.089-1.3c0-.034,0-.067,0-.105.03-.961.139-2.011,1.122-2.361a13.255,13.255,0,0,0,3.85-1.758.569.569,0,1,0-.654-.932,12.033,12.033,0,0,1-3.5,1.594l-.042.013c-1.83.628-1.885,2.58-1.91,3.411a.847.847,0,0,1,0,.105v.013a6.466,6.466,0,0,0,.215,1.91.541.541,0,0,0,.219.266,15.948,15.948,0,0,0,8.23,2.015,16,16,0,0,0,8.23-2.015.564.564,0,0,0,.219-.266A6.784,6.784,0,0,0,53.391,264.487Z" transform="translate(-36.073 -248.313)" fill="#fff"/>
</svg>
