<svg xmlns="http://www.w3.org/2000/svg" width="21.011" height="19.037" viewBox="0 0 21.011 19.037">
  <g id="Group_2423" data-name="Group 2423" transform="translate(-71.904 -0.951)">
    <path id="Path_2621" data-name="Path 2621" d="M77.245.951V19.988h10.34V.951Zm2.691,16.475H78.489V14.7h1.447Zm0-4.128H78.489V10.574h1.447Zm0-4.128H78.489V6.447h1.447Zm0-4.127H78.489V2.319h1.447Zm3.032,12.383H81.521V14.7h1.447Zm0-4.128H81.521V10.574h1.447Zm0-4.128H81.521V6.447h1.447Zm0-4.127H81.521V2.319h1.447ZM86,17.426H84.553V14.7H86ZM86,13.3H84.553V10.574H86ZM86,9.17H84.553V6.447H86Zm0-4.127H84.553V2.319H86Z" fill="#fff"/>
    <path id="Path_2622" data-name="Path 2622" d="M88.308,10.787v9.2h4.607v-9.2Zm2.543,8.49H89.4V18.149h1.447Zm0-1.617H89.4V16.532h1.447Zm0-1.617H89.4V14.915h1.447Zm0-1.617H89.4V13.3h1.447Zm0-1.618H89.4V11.681h1.447Z" fill="#fff"/>
    <path id="Path_2623" data-name="Path 2623" d="M71.9,10.787v9.2h4.607v-9.2Zm2.064,7.362h1.447v1.128H73.968Zm0-1.617h1.447V17.66H73.968Zm0-1.617h1.447v1.128H73.968Zm0-1.617h1.447v1.128H73.968Zm0-1.617h1.447v1.127H73.968Z" fill="#fff"/>
  </g>
</svg>
