<svg xmlns="http://www.w3.org/2000/svg" width="19.064" height="21" viewBox="0 0 19.064 21">
  <g id="Group_2421" data-name="Group 2421" transform="translate(-73.213)">
    <path id="Path_2612" data-name="Path 2612" d="M73.213.615V2.5H92.277V.615A.626.626,0,0,0,91.641,0H73.848A.625.625,0,0,0,73.213.615Z" fill="#fff"/>
    <path id="Path_2613" data-name="Path 2613" d="M77.718,6.809H87.771v1.23H77.718Z" fill="#fff"/>
    <path id="Path_2614" data-name="Path 2614" d="M73.213,20.385a.625.625,0,0,0,.635.615H91.641a.626.626,0,0,0,.636-.615V3.732H73.213ZM88.888,18.5a.588.588,0,0,1-.558.615H84.979a.589.589,0,0,1-.559-.615V16.037a.589.589,0,0,1,.559-.615H88.33a.588.588,0,0,1,.558.615Zm0-4.922a.588.588,0,0,1-.558.615H84.979a.589.589,0,0,1-.559-.615V11.115a.589.589,0,0,1,.559-.615H88.33a.588.588,0,0,1,.558.615ZM76.6,6.193a.589.589,0,0,1,.559-.615H88.33a.588.588,0,0,1,.558.615V8.654a.589.589,0,0,1-.558.616H77.16a.59.59,0,0,1-.559-.616Zm0,4.922a.589.589,0,0,1,.559-.615h5.585a.588.588,0,0,1,.558.615V18.5a.588.588,0,0,1-.558.615H77.16A.589.589,0,0,1,76.6,18.5Z" fill="#fff"/>
  </g>
</svg>
