<svg xmlns="http://www.w3.org/2000/svg" width="24.621" height="23.179" viewBox="0 0 24.621 23.179">
  <g id="folder" transform="translate(0)">
    <path id="Path_2170" data-name="Path 2170" d="M2.618,19.853h10.74a5.933,5.933,0,1,0,7.381-8.174V7.872A2.621,2.621,0,0,0,18.12,5.254H18V5.188a2.622,2.622,0,0,0-2.619-2.619H11.2a.168.168,0,0,1-.125-.055L9.555.852A2.624,2.624,0,0,0,7.622,0h-5A2.621,2.621,0,0,0,0,2.618V17.234a2.622,2.622,0,0,0,2.618,2.619Zm21.226-2.606a5.157,5.157,0,1,1-5.157-5.157A5.157,5.157,0,0,1,23.844,17.246ZM18.12,6.03a1.844,1.844,0,0,1,1.843,1.842v3.579a5.934,5.934,0,0,0-6.92,7.625H4.712a2.61,2.61,0,0,0,.76-1.842V7.872A1.844,1.844,0,0,1,7.314,6.03ZM.776,2.618A1.844,1.844,0,0,1,2.618.776h5a1.847,1.847,0,0,1,1.36.6L10.5,3.036a.946.946,0,0,0,.7.308h4.186a1.845,1.845,0,0,1,1.842,1.843v.066H7.314A2.621,2.621,0,0,0,4.7,7.872v9.362a1.845,1.845,0,0,1-1.843,1.842H2.618A1.844,1.844,0,0,1,.776,17.234Zm0,0" transform="translate(0)" fill="#3a3a3a"/>
    <path id="Path_2171" data-name="Path 2171" d="M297.039,261.8l-1.941,1.806a.388.388,0,1,0,.529.568l1.288-1.2v3.8a.388.388,0,0,0,.776,0v-3.8l1.288,1.2a.388.388,0,0,0,.529-.568l-1.941-1.806A.388.388,0,0,0,297.039,261.8Zm0,0" transform="translate(-278.616 -247.183)" fill="#3a3a3a"/>
  </g>
</svg>
