<svg id="Layer_1" data-name="Layer 1" xmlns="http://www.w3.org/2000/svg" width="24.333" height="24.333" viewBox="0 0 24.333 24.333">
  <g id="_Group_" data-name="&lt;Group&gt;">
    <path id="_Compound_Path_" data-name="&lt;Compound Path&gt;" d="M12.167,0A12.166,12.166,0,1,0,24.333,12.166,12.166,12.166,0,0,0,12.167,0Zm0,22.981A10.815,10.815,0,1,1,22.981,12.166,10.815,10.815,0,0,1,12.167,22.981Z" fill="#3a3a3a"/>
    <ellipse id="_Path_" data-name="&lt;Path&gt;" cx="5.745" cy="5.745" rx="5.745" ry="5.745" transform="translate(6.421 6.421)" fill="#3a3a3a"/>
  </g>
</svg>
