<svg xmlns="http://www.w3.org/2000/svg" width="25" height="19" viewBox="0 0 25 19">
  <g id="Group_481" data-name="Group 481" transform="translate(-193 -1542)">
    <g id="Rectangle_1568" data-name="Rectangle 1568" transform="translate(193 1542)" fill="none" stroke="#3a3a3a" stroke-width="1">
      <rect width="25" height="19" stroke="none"/>
      <rect x="0.5" y="0.5" width="24" height="18" fill="none"/>
    </g>
    <g id="Group_480" data-name="Group 480" transform="translate(195.683 1546.434)">
      <line id="Line_25" data-name="Line 25" x2="18.542" transform="translate(0)" fill="none" stroke="#3a3a3a" stroke-width="1"/>
      <line id="Line_26" data-name="Line 26" x2="18.542" transform="translate(0 4.031)" fill="none" stroke="#3a3a3a" stroke-width="1"/>
      <line id="Line_27" data-name="Line 27" x2="18.542" transform="translate(0 8.062)" fill="none" stroke="#3a3a3a" stroke-width="1"/>
    </g>
  </g>
</svg>
