<svg xmlns="http://www.w3.org/2000/svg" width="23.606" height="23.606" viewBox="0 0 23.606 23.606">
  <g id="Layer_2" data-name="Layer 2" transform="translate(0.5 0.703)">
    <g id="Layer_1" data-name="Layer 1" transform="translate(0 0)">
      <path id="Path_2109" data-name="Path 2109" d="M22.263,6.121V21.483a1.28,1.28,0,0,1-1.28,1.28H1.78A1.28,1.28,0,0,1,.5,21.483V2.28A1.28,1.28,0,0,1,1.78,1H17.142" transform="translate(-0.5 -0.36)" fill="none" stroke="#3a3a3a" stroke-linecap="round" stroke-miterlimit="10" stroke-width="1"/>
      <path id="Path_2110" data-name="Path 2110" d="M6,8.181l4.609,4.609a.627.627,0,0,0,.96,0L21.362.5" transform="translate(1.041 -0.5)" fill="none" stroke="#3a3a3a" stroke-linecap="round" stroke-miterlimit="10" stroke-width="1"/>
    </g>
  </g>
</svg>
