<svg xmlns="http://www.w3.org/2000/svg" width="30.5" height="8.828" viewBox="0 0 30.5 8.828">
  <g id="levels" transform="translate(-35.033)">
    <path id="Path_2143" data-name="Path 2143" d="M58.609,3.2a4.413,4.413,0,0,0-8.486,0H35.033V5.626h15.09a4.413,4.413,0,0,0,8.486,0h6.924V3.2ZM54.366,6.4a1.989,1.989,0,1,1,1.989-1.989A1.991,1.991,0,0,1,54.366,6.4Zm0,0" fill="#3a3a3a"/>
  </g>
</svg>
