<svg xmlns="http://www.w3.org/2000/svg" width="27.543" height="14.938" viewBox="0 0 27.543 14.938">
  <g id="Group_2402" data-name="Group 2402" transform="translate(-194.224 -2459.803)">
    <path id="Path_2599" data-name="Path 2599" d="M-17236.652-3553.7v13.557" transform="translate(17445 6014)" fill="none" stroke="#3a3a3a" stroke-linecap="round" stroke-width="1"/>
    <g id="Group_2401" data-name="Group 2401">
      <path id="Path_2598" data-name="Path 2598" d="M-17244.672-3561l6.637,9.535v17.008h-13.937v-16.628Z" transform="translate(-3339.732 19712.275) rotate(90)" fill="none" stroke="#3a3a3a" stroke-linecap="round" stroke-linejoin="round" stroke-width="1"/>
      <g id="Ellipse_243" data-name="Ellipse 243" transform="translate(211 2465)" fill="none" stroke="#3a3a3a" stroke-width="0.75">
        <circle cx="2" cy="2" r="2" stroke="none"/>
        <circle cx="2" cy="2" r="1.625" fill="none"/>
      </g>
      <g id="Group_2400" data-name="Group 2400">
        <line id="Line_126" data-name="Line 126" x2="8" transform="translate(197.5 2463.5)" fill="none" stroke="#3a3a3a" stroke-linecap="round" stroke-width="1"/>
        <line id="Line_127" data-name="Line 127" x2="8" transform="translate(197.5 2467.409)" fill="none" stroke="#3a3a3a" stroke-linecap="round" stroke-width="1"/>
        <line id="Line_128" data-name="Line 128" x2="8" transform="translate(197.5 2471.318)" fill="none" stroke="#3a3a3a" stroke-linecap="round" stroke-width="1"/>
      </g>
    </g>
  </g>
</svg>
