<svg xmlns="http://www.w3.org/2000/svg" width="16" height="16" viewBox="0 0 16 16">
  <g id="Group_1586" data-name="Group 1586" transform="translate(0.312 0.057)">
    <circle id="Ellipse_48" data-name="Ellipse 48" cx="8" cy="8" r="8" transform="translate(-0.312 -0.057)" fill="#b5ee5f"/>
    <g id="tick" transform="translate(4.889 4.728)">
      <g id="Group_1031" data-name="Group 1031" transform="translate(0 0)">
        <g id="Path_2357" data-name="Path 2357" transform="translate(0 -67.997)" fill="#fff" stroke-linecap="round">
          <path d="M 2.189064025878906 74.62210845947266 C 2.189047336578369 74.62210845947266 2.189050436019897 74.62210845947266 2.189033508300781 74.62210845947266 C 2.051393508911133 74.62210845947266 1.919043660163879 74.55418395996094 1.825903654098511 74.43578338623047 L -0.01677638664841652 72.09409332275391 C -0.195256382226944 71.86728668212891 -0.1952463835477829 71.51195526123047 -0.01677638664841652 71.28516387939453 C 0.07643361389636993 71.16673278808594 0.2088036090135574 71.09881591796875 0.3464035987854004 71.09881591796875 C 0.4839936196804047 71.09881591796875 0.6163635849952698 71.166748046875 0.709553599357605 71.28518676757813 L 2.189072608947754 73.16539764404297 L 6.226963520050049 68.03385162353516 C 6.320173740386963 67.91542816162109 6.45254373550415 67.84750366210938 6.590133666992188 67.84750366210938 C 6.727733612060547 67.84750366210938 6.860093593597412 67.91542816162109 6.953283786773682 68.03385162353516 C 7.131763458251953 68.26068878173828 7.131753444671631 68.61601257324219 6.953283786773682 68.84280395507813 L 2.552233695983887 74.43580627441406 C 2.459064960479736 74.55419921875 2.326685905456543 74.62210845947266 2.189064025878906 74.62210845947266 Z" stroke="none"/>
          <path d="M 6.590134620666504 67.99749755859375 C 6.501363754272461 67.99749755859375 6.412588596343994 68.04053497314453 6.344843864440918 68.12661743164063 L 2.18907356262207 73.40796661376953 L 0.5916638374328613 71.37793731689453 C 0.5239419937133789 71.29186248779297 0.4351568222045898 71.24880981445313 0.3463950157165527 71.24880981445313 C 0.2576117515563965 71.24880981445313 0.1688518524169922 71.29184722900391 0.1011037826538086 71.37793731689453 C -0.03436660766601563 71.55007171630859 -0.03436660766601563 71.82917785644531 0.1011037826538086 72.00133514404297 L 1.943793773651123 74.34304809570313 C 2.011487007141113 74.42909240722656 2.100276470184326 74.47210693359375 2.189045906066895 74.47210693359375 C 2.277858734130859 74.47210693359375 2.366652011871338 74.4290771484375 2.434353828430176 74.34304809570313 L 6.835403442382813 68.75003814697266 C 6.970873832702637 68.57789611816406 6.970863819122314 68.29877471923828 6.835403442382813 68.12661743164063 C 6.767673492431641 68.04053497314453 6.678905963897705 67.99749755859375 6.590134620666504 67.99749755859375 M 6.590133666992188 67.69749450683594 C 6.774023532867432 67.69749450683594 6.949353694915771 67.78628540039063 7.071173667907715 67.94110870361328 C 7.290573596954346 68.21994781494141 7.290563583374023 68.65676879882813 7.07115364074707 68.93556213378906 L 2.670113563537598 74.528564453125 C 2.548313617706299 74.68333435058594 2.372973442077637 74.77210235595703 2.189043521881104 74.77210235595703 C 2.005103588104248 74.77210235595703 1.829773426055908 74.68332672119141 1.708003520965576 74.52852630615234 L -0.1346564292907715 72.18685150146484 C -0.3540663719177246 71.90802764892578 -0.3540563583374023 71.47120666503906 -0.1346464157104492 71.19240570068359 C -0.01282644271850586 71.03760528564453 0.1625137329101563 70.94881439208984 0.3463935852050781 70.94881439208984 C 0.5302934646606445 70.94881439208984 0.7056236267089844 71.03760528564453 0.8274335861206055 71.19243621826172 L 2.189071178436279 72.92283630371094 L 6.109083652496338 67.94109344482422 C 6.230913639068604 67.78628540039063 6.406243801116943 67.69749450683594 6.590133666992188 67.69749450683594 Z" stroke="none" fill="#fff"/>
        </g>
      </g>
    </g>
  </g>
</svg>
