<svg id="shopping-list" xmlns="http://www.w3.org/2000/svg" width="27.879" height="37.171" viewBox="0 0 27.879 37.171">
  <g id="Group_314" data-name="Group 314" transform="translate(4.648 13.94)">
    <g id="Group_313" data-name="Group 313">
      <path id="Path_2093" data-name="Path 2093" d="M136.976,192.349a1.165,1.165,0,0,0-1.645,0l-3.824,3.826-1.5-1.5a1.161,1.161,0,1,0-1.643,1.642l2.323,2.323a1.15,1.15,0,0,0,.82.342,1.167,1.167,0,0,0,.822-.339l4.646-4.646A1.162,1.162,0,0,0,136.976,192.349Z" transform="translate(-128.024 -192.008)" fill="#165888"/>
    </g>
  </g>
  <g id="Group_316" data-name="Group 316" transform="translate(4.648 23.233)">
    <g id="Group_315" data-name="Group 315">
      <path id="Path_2094" data-name="Path 2094" d="M136.976,320.349a1.165,1.165,0,0,0-1.645,0l-3.824,3.826-1.5-1.5a1.161,1.161,0,1,0-1.643,1.643l2.323,2.323a1.164,1.164,0,0,0,1.643,0l4.646-4.646A1.162,1.162,0,0,0,136.976,320.349Z" transform="translate(-128.024 -320.008)" fill="#165888"/>
    </g>
  </g>
  <g id="Group_318" data-name="Group 318" transform="translate(16.262 16.262)">
    <g id="Group_317" data-name="Group 317">
      <path id="Path_2095" data-name="Path 2095" d="M293.808,224h-4.646a1.162,1.162,0,1,0,0,2.323h4.646a1.162,1.162,0,0,0,0-2.323Z" transform="translate(-288 -224)" fill="#165888"/>
    </g>
  </g>
  <g id="Group_320" data-name="Group 320" transform="translate(16.262 25.555)">
    <g id="Group_319" data-name="Group 319">
      <path id="Path_2096" data-name="Path 2096" d="M293.808,352h-4.646a1.162,1.162,0,1,0,0,2.323h4.646a1.162,1.162,0,0,0,0-2.323Z" transform="translate(-288 -352)" fill="#165888"/>
    </g>
  </g>
  <g id="Group_322" data-name="Group 322">
    <g id="Group_321" data-name="Group 321">
      <path id="Path_2097" data-name="Path 2097" d="M89.555,4.646H84.909V3.485a1.162,1.162,0,0,0-1.162-1.162H81.227a3.487,3.487,0,0,0-6.575,0H72.131A1.162,1.162,0,0,0,70.97,3.485V4.646H66.323A2.327,2.327,0,0,0,64,6.97V34.848a2.327,2.327,0,0,0,2.323,2.323H89.555a2.327,2.327,0,0,0,2.323-2.323V6.97A2.327,2.327,0,0,0,89.555,4.646Zm-16.262,0h2.323a1.162,1.162,0,0,0,1.162-1.162,1.162,1.162,0,1,1,2.323,0,1.162,1.162,0,0,0,1.162,1.162h2.323V6.97H73.293Zm16.262,30.2H66.323V6.97H70.97V8.131a1.162,1.162,0,0,0,1.162,1.162H83.747a1.162,1.162,0,0,0,1.162-1.162V6.97h4.646Z" transform="translate(-64)" fill="#165888"/>
    </g>
  </g>
</svg>
