<svg id="smily10" xmlns="http://www.w3.org/2000/svg" width="26.107" height="26.107" viewBox="0 0 26.107 26.107">
  <g id="Group_2012" data-name="Group 2012" transform="translate(0 0)">
    <g id="Group_2010" data-name="Group 2010" transform="translate(0 0)">
      <path id="Path_2520" data-name="Path 2520" d="M441,64.887a13.054,13.054,0,1,1-13.054-13.054A13.054,13.054,0,0,1,441,64.887Z" transform="translate(-414.889 -51.833)" fill="#c5c5c5"/>
    </g>
    <g id="Group_2011" data-name="Group 2011" transform="translate(5.452 9.183)">
      <path id="Path_2521" data-name="Path 2521" d="M505.136,106.773s-.024-2.023,1.778-2.023,1.762,2.007,1.762,2.007" transform="translate(-493.473 -104.75)" fill="none" stroke="#403408" stroke-linecap="round" stroke-miterlimit="10" stroke-width="2"/>
      <path id="Path_2522" data-name="Path 2522" d="M443.636,106.773s-.024-2.023,1.778-2.023,1.762,2.007,1.762,2.007" transform="translate(-443.636 -104.75)" fill="none" stroke="#403408" stroke-linecap="round" stroke-miterlimit="10" stroke-width="2"/>
    </g>
    <path id="Path_2523" data-name="Path 2523" d="M468.41,138.75a4.941,4.941,0,0,1-4.7,3.461,4.853,4.853,0,0,1-4.657-3.434" transform="translate(-450.678 -122.266)" fill="none" stroke="#403408" stroke-linecap="round" stroke-miterlimit="10" stroke-width="2"/>
  </g>
</svg>
