<svg id="Group_2268" data-name="Group 2268" xmlns="http://www.w3.org/2000/svg" width="26.107" height="26.107" viewBox="0 0 26.107 26.107">
  <g id="Group_2261" data-name="Group 2261" transform="translate(0 0)">
    <g id="Group_2003" data-name="Group 2003" transform="translate(0 0)">
      <path id="Path_2513" data-name="Path 2513" d="M270.722,424a13.054,13.054,0,1,1-13.054-13.054A13.054,13.054,0,0,1,270.722,424Z" transform="translate(-244.615 -410.948)" fill="#ffd21f"/>
    </g>
    <g id="Group_2004" data-name="Group 2004" transform="translate(6.163 7.107)">
      <path id="Path_2514" data-name="Path 2514" d="M278.06,458.1h0a.951.951,0,0,1-.948-.948v-3.287a.951.951,0,0,1,.948-.948h0a.951.951,0,0,1,.948.948v3.287A.951.951,0,0,1,278.06,458.1Z" transform="translate(-277.112 -452.92)" fill="#403408"/>
      <path id="Path_2515" data-name="Path 2515" d="M340.727,458.1h0a.951.951,0,0,1-.948-.948v-3.287a.951.951,0,0,1,.948-.948h0a.951.951,0,0,1,.948.948v3.287A.951.951,0,0,1,340.727,458.1Z" transform="translate(-327.894 -452.92)" fill="#403408"/>
    </g>
    <path id="Path_2516" data-name="Path 2516" d="M288.779,492.193a4.941,4.941,0,0,1,4.7-3.461,4.853,4.853,0,0,1,4.657,3.434" transform="translate(-280.403 -473.98)" fill="none" stroke="#403408" stroke-linecap="round" stroke-miterlimit="10" stroke-width="2"/>
  </g>
</svg>
