<svg xmlns="http://www.w3.org/2000/svg" width="49" height="49" viewBox="0 0 49 49">
  <g id="Group_1324" data-name="Group 1324" transform="translate(-1215 -785)">
    <g id="Group_1032" data-name="Group 1032" transform="translate(-5 -67)">
      <circle id="Ellipse_48" data-name="Ellipse 48" cx="24.5" cy="24.5" r="24.5" transform="translate(1220 852)" fill="#0086f2"/>
    </g>
    <g id="Group_1038" data-name="Group 1038" transform="translate(1 2)">
      <rect id="Rectangle_1665" data-name="Rectangle 1665" width="5" height="19" rx="2.5" transform="translate(1236 802)" fill="#fff"/>
      <circle id="Ellipse_49" data-name="Ellipse 49" cx="2.5" cy="2.5" r="2.5" transform="translate(1236 795)" fill="#fff"/>
    </g>
  </g>
</svg>
