<svg xmlns="http://www.w3.org/2000/svg" width="49" height="49" viewBox="0 0 49 49">
  <g id="Group_1032" data-name="Group 1032" transform="translate(-1220 -852)">
    <circle id="Ellipse_48" data-name="Ellipse 48" cx="24.5" cy="24.5" r="24.5" transform="translate(1220 852)" fill="#b5ee5f"/>
    <g id="tick" transform="translate(1231.001 799.002)">
      <g id="Group_1031" data-name="Group 1031" transform="translate(0 67.997)">
        <g id="Path_2357" data-name="Path 2357" transform="translate(0 -67.997)" fill="#fff" stroke-linecap="round">
          <path d="M 8.433306694030762 88.12167358398438 C 8.433276176452637 88.12167358398438 8.433259010314941 88.12167358398438 8.433229446411133 88.12167358398438 C 7.942639350891113 88.12164306640625 7.481579303741455 87.93069458007813 7.134979248046875 87.58400726318359 L 0.0373094379901886 80.48643493652344 C -0.3095005750656128 80.13961791992188 -0.5005005598068237 79.67852783203125 -0.5005005598068237 79.1881103515625 C -0.5005005598068237 78.69767761230469 -0.3095005750656128 78.23661041259766 0.03731943666934967 77.88981628417969 C 0.3841794431209564 77.54302978515625 0.8452794551849365 77.35204315185547 1.335689425468445 77.35204315185547 C 1.82612943649292 77.35204315185547 2.2871994972229 77.54304504394531 2.63396954536438 77.88984680175781 L 8.433342933654785 83.68923187255859 L 24.08712005615234 68.03530883789063 C 24.43397903442383 67.68848419189453 24.89507865905762 67.49749755859375 25.38548851013184 67.49749755859375 C 25.87592887878418 67.49749755859375 26.33699989318848 67.68849945068359 26.68379020690918 68.03531646728516 C 27.03056907653809 68.38212585449219 27.22154998779297 68.84321594238281 27.22155952453613 69.33363342285156 C 27.2215690612793 69.8240966796875 27.03056907653809 70.28518676757813 26.68375968933105 70.63196563720703 L 9.731669425964355 87.58404541015625 C 9.384970664978027 87.93074798583984 8.923863410949707 88.12167358398438 8.433306694030762 88.12167358398438 Z" stroke="none"/>
          <path d="M 25.38549041748047 67.99749755859375 C 25.04356002807617 67.99749755859375 24.70161437988281 68.12795257568359 24.4406795501709 68.38885498046875 L 8.433349609375 84.39633941650391 L 2.280399322509766 78.24338531494141 C 2.019552230834961 77.98251342773438 1.677581787109375 77.85205078125 1.335691452026367 77.85205078125 C 0.9937171936035156 77.85205078125 0.6518211364746094 77.98247528076172 0.3908596038818359 78.24338531494141 C -0.130950927734375 78.76514434814453 -0.130950927734375 79.61105346679688 0.3908596038818359 80.13287353515625 L 7.488578796386719 87.23048400878906 C 7.749320983886719 87.49130249023438 8.091327667236328 87.62167358398438 8.433254241943359 87.62167358398438 C 8.775348663330078 87.62167358398438 9.117361068725586 87.49124908447266 9.378118515014648 87.23048400878906 L 26.33021926879883 70.27839660644531 C 26.85202980041504 69.75663757324219 26.85198020935059 68.91066741943359 26.33021926879883 68.38885498046875 C 26.06933975219727 68.12795257568359 25.7274227142334 67.99749755859375 25.38549041748047 67.99749755859375 M 25.38549041748047 66.99749755859375 C 26.00949859619141 66.99749755859375 26.59613990783691 67.24051666259766 27.03736877441406 67.68178558349609 C 27.94818878173828 68.59269714355469 27.94816017150879 70.07475280761719 27.03728866577148 70.98553466796875 L 10.08522987365723 87.93759918212891 C 9.644100189208984 88.37872314453125 9.057418823242188 88.62166595458984 8.433259963989258 88.62166595458984 C 7.809089660644531 88.62166595458984 7.222429275512695 88.37868499755859 6.78135871887207 87.93748474121094 L -0.3162403106689453 80.83998870849609 C -0.7574901580810547 80.39872741699219 -1.000499725341797 79.81208801269531 -1.000499725341797 79.1881103515625 C -1.000499725341797 78.56411743164063 -0.7574806213378906 77.97747039794922 -0.3162097930908203 77.53624725341797 C 0.1250991821289063 77.09501647949219 0.7117385864257813 76.85204315185547 1.335689544677734 76.85204315185547 C 1.959678649902344 76.85204315185547 2.546319961547852 77.09505462646484 2.987529754638672 77.53630828857422 L 8.433349609375 82.98211669921875 L 23.73357009887695 67.68175506591797 C 24.17486000061035 67.24049377441406 24.76152038574219 66.99749755859375 25.38549041748047 66.99749755859375 Z" stroke="none" fill="#fff"/>
        </g>
      </g>
    </g>
  </g>
</svg>
