<svg xmlns="http://www.w3.org/2000/svg" width="16.579" height="22.889" viewBox="0 0 16.579 22.889">
  <g id="pin" transform="translate(-70.573)">
    <g id="Group_2235" data-name="Group 2235" transform="translate(70.573)">
      <path id="Path_2581" data-name="Path 2581" d="M78.862,0a8.3,8.3,0,0,0-8.289,8.289c0,5.672,7.418,14,7.734,14.352a.747.747,0,0,0,1.111,0c.316-.352,7.734-8.679,7.734-14.352A8.3,8.3,0,0,0,78.862,0Zm0,12.46a4.171,4.171,0,1,1,4.171-4.171A4.175,4.175,0,0,1,78.862,12.46Z" transform="translate(-70.573)" fill="#165888"/>
    </g>
  </g>
</svg>
