<svg xmlns="http://www.w3.org/2000/svg" width="22.393" height="16.83" viewBox="0 0 22.393 16.83">
  <g id="Group_2138" data-name="Group 2138" transform="translate(-1404.914 -456.055)">
    <g id="ic_keyboard_arrow_right_24px" transform="translate(1396.324 450.305)">
      <path id="Path_2573" data-name="Path 2573" d="M8.59,20.6l6.424-6.438L8.59,7.728,10.568,5.75l8.415,8.415L10.568,22.58Z" transform="translate(0)" fill="#8d8d8d"/>
    </g>
    <g id="ic_keyboard_arrow_right_24px-2" data-name="ic_keyboard_arrow_right_24px" transform="translate(1408.324 450.305)">
      <path id="Path_2573-2" data-name="Path 2573" d="M8.59,20.6l6.424-6.438L8.59,7.728,10.568,5.75l8.415,8.415L10.568,22.58Z" transform="translate(0)" fill="#8d8d8d"/>
    </g>
  </g>
</svg>
