<svg xmlns="http://www.w3.org/2000/svg" width="22.895" height="13.879" viewBox="0 0 22.895 13.879">
  <g id="Layer_1" data-name="Layer 1" transform="translate(0.5 0.5)">
    <rect id="Rectangle_1530" data-name="Rectangle 1530" width="21.895" height="12.879" rx="1" fill="none" stroke="#656565" stroke-miterlimit="10" stroke-width="1"/>
    <path id="Path_2108" data-name="Path 2108" d="M8.5,4l3.864,3.864L16.227,4" transform="translate(1.803 0.508)" fill="none" stroke="#656565" stroke-linecap="round" stroke-linejoin="round" stroke-width="1"/>
  </g>
</svg>
