<svg xmlns="http://www.w3.org/2000/svg" width="15.13" height="20.889" viewBox="0 0 15.13 20.889">
  <g id="pin" transform="translate(-70.573)">
    <g id="Group_2235" data-name="Group 2235" transform="translate(70.573)">
      <path id="Path_2581" data-name="Path 2581" d="M78.138,0a7.574,7.574,0,0,0-7.565,7.565c0,5.177,6.77,12.777,7.058,13.1a.681.681,0,0,0,1.014,0c.288-.321,7.058-7.921,7.058-13.1A7.574,7.574,0,0,0,78.138,0Zm0,11.371a3.806,3.806,0,1,1,3.806-3.806A3.81,3.81,0,0,1,78.138,11.371Z" transform="translate(-70.573)" fill="#686868"/>
    </g>
  </g>
</svg>
