<svg xmlns="http://www.w3.org/2000/svg" width="23.324" height="23.323" viewBox="0 0 23.324 23.323">
  <g id="Group_2235" data-name="Group 2235" transform="translate(-296.135 -398.467)">
    <g id="Group_2003" data-name="Group 2003" transform="translate(297.135 399.467)">
      <path id="Path_2513" data-name="Path 2513" d="M265.939,421.61a10.662,10.662,0,1,1-10.662-10.662A10.662,10.662,0,0,1,265.939,421.61Z" transform="translate(-244.615 -410.948)" fill="none" stroke="#c5c5c5" stroke-width="2"/>
    </g>
    <g id="Group_2004" data-name="Group 2004" transform="translate(302.954 405.859)">
      <path id="Path_2514" data-name="Path 2514" d="M277.887,455.981h0c-.426,0-.775-.252-.775-.56V453.48c0-.308.349-.56.775-.56h0c.426,0,.774.252.774.56v1.941C278.661,455.729,278.313,455.981,277.887,455.981Z" transform="translate(-277.112 -452.92)" fill="#c5c5c5"/>
      <path id="Path_2515" data-name="Path 2515" d="M340.553,455.981h0c-.426,0-.775-.252-.775-.56V453.48c0-.308.349-.56.775-.56h0c.426,0,.775.252.775.56v1.941C341.328,455.729,340.979,455.981,340.553,455.981Z" transform="translate(-331.642 -452.92)" fill="#c5c5c5"/>
    </g>
    <path id="Path_2516" data-name="Path 2516" d="M288.779,488.732a4.035,4.035,0,0,0,3.838,2.826,3.964,3.964,0,0,0,3.8-2.8" transform="translate(15.197 -76.172)" fill="none" stroke="#c5c5c5" stroke-linecap="round" stroke-miterlimit="10" stroke-width="2"/>
  </g>
</svg>
