<svg id="Layer_2" data-name="Layer 2" xmlns="http://www.w3.org/2000/svg" width="18.465" height="17.666" viewBox="0 0 18.465 17.666">
  <g id="Layer_1" data-name="Layer 1" transform="translate(0 0)">
    <g id="_Group_" data-name="&lt;Group&gt;">
      <path id="_Compound_Path_" data-name="&lt;Compound Path&gt;" d="M14.446,17.665a1.129,1.129,0,0,1-.559-.157L9.235,15.035,4.6,17.478a.981.981,0,0,1-1.187-.128.981.981,0,0,1-.186-.864l.893-5.182L.363,7.655a.981.981,0,0,1-.324-.981.981.981,0,0,1,.854-.618l5.2-.756L8.391.589a.913.913,0,0,1,1.708,0L12.424,5.3l5.182.746a.981.981,0,0,1,.844.618.981.981,0,0,1-.324.981l-3.759,3.661.893,5.162a.981.981,0,0,1-.186.864.8.8,0,0,1-.628.334ZM1.1,7.007l3.71,3.621a.981.981,0,0,1,.275.834L4.21,16.585l4.622-2.414a.8.8,0,0,1,.883,0l4.593,2.414-.873-5.123a.981.981,0,0,1,.275-.834l3.71-3.621-5.133-.756a.981.981,0,0,1-.716-.51L9.245,1.079l-2.3,4.662a.981.981,0,0,1-.716.51Z" transform="translate(-0.012 0.001)" fill="#686868"/>
    </g>
  </g>
</svg>
