<svg id="favourite-31" xmlns="http://www.w3.org/2000/svg" width="50.559" height="48.263" viewBox="0 0 50.559 48.263">
  <path id="Path_2574" data-name="Path 2574" d="M27.916,2.516,34.739,16.34l15.255,2.218a1.825,1.825,0,0,1,1.011,3.112l-11.04,10.76,2.606,15.2a1.825,1.825,0,0,1-2.647,1.924L26.28,42.375,12.634,49.55a1.826,1.826,0,0,1-2.647-1.926l2.606-15.2L1.552,21.669a1.824,1.824,0,0,1,1.011-3.112L17.818,16.34,24.641,2.516A1.827,1.827,0,0,1,27.916,2.516Z" transform="translate(-1 -1.5)" fill="#ce2e6c"/>
</svg>
