<svg xmlns="http://www.w3.org/2000/svg" width="37.432" height="37.432" viewBox="0 0 37.432 37.432">
  <g id="Group_2257" data-name="Group 2257" transform="translate(0 0)">
    <g id="Group_2003" data-name="Group 2003" transform="translate(0 0)">
      <path id="Path_2513" data-name="Path 2513" d="M282.047,429.664a18.716,18.716,0,1,1-18.716-18.716A18.716,18.716,0,0,1,282.047,429.664Z" transform="translate(-244.615 -410.948)" fill="#c5c5c5"/>
    </g>
    <g id="Group_2004" data-name="Group 2004" transform="translate(10.215 11.22)">
      <path id="Path_2514" data-name="Path 2514" d="M278.472,458.294h0c-.748,0-1.36-.442-1.36-.983V453.9c0-.541.612-.983,1.36-.983h0c.748,0,1.36.442,1.36.983v3.408C279.831,457.852,279.219,458.294,278.472,458.294Z" transform="translate(-277.112 -452.92)" fill="#403408"/>
      <path id="Path_2515" data-name="Path 2515" d="M341.139,458.294h0c-.748,0-1.36-.442-1.36-.983V453.9c0-.541.612-.983,1.36-.983h0c.748,0,1.36.442,1.36.983v3.408C342.5,457.852,341.886,458.294,341.139,458.294Z" transform="translate(-325.496 -452.92)" fill="#403408"/>
    </g>
    <path id="Path_2516" data-name="Path 2516" d="M288.779,488.732a7.083,7.083,0,0,0,6.737,4.962,6.958,6.958,0,0,0,6.677-4.923" transform="translate(-276.77 -465.748)" fill="none" stroke="#403408" stroke-linecap="round" stroke-miterlimit="10" stroke-width="3"/>
  </g>
</svg>
