<svg xmlns="http://www.w3.org/2000/svg" width="64.906" height="64.906" viewBox="0 0 64.906 64.906">
  <g id="Group_2028" data-name="Group 2028" transform="translate(-244.615 -410.948)">
    <g id="Group_2003" data-name="Group 2003" transform="translate(244.615 410.948)">
      <path id="Path_2513" data-name="Path 2513" d="M309.521,443.4a32.453,32.453,0,1,1-32.453-32.453A32.454,32.454,0,0,1,309.521,443.4Z" transform="translate(-244.615 -410.948)" fill="#ff961f"/>
    </g>
    <g id="Group_2004" data-name="Group 2004" transform="translate(259.937 428.618)">
      <path id="Path_2514" data-name="Path 2514" d="M279.469,465.807h0a2.364,2.364,0,0,1-2.357-2.357v-8.172a2.364,2.364,0,0,1,2.357-2.357h0a2.364,2.364,0,0,1,2.357,2.357v8.172A2.364,2.364,0,0,1,279.469,465.807Z" transform="translate(-277.112 -452.92)" fill="#403408"/>
      <path id="Path_2515" data-name="Path 2515" d="M342.136,465.807h0a2.364,2.364,0,0,1-2.357-2.357v-8.172a2.364,2.364,0,0,1,2.357-2.357h0a2.364,2.364,0,0,1,2.358,2.357v8.172A2.364,2.364,0,0,1,342.136,465.807Z" transform="translate(-310.232 -452.92)" fill="#403408"/>
    </g>
    <path id="Path_2516" data-name="Path 2516" d="M288.779,497.337s2.458-8.6,11.682-8.6,11.578,8.538,11.578,8.538" transform="translate(-23.341 -41.11)" fill="none" stroke="#403408" stroke-linecap="round" stroke-miterlimit="10" stroke-width="3"/>
  </g>
</svg>
