<svg xmlns="http://www.w3.org/2000/svg" width="35.911" height="35.911" viewBox="0 0 35.911 35.911">
  <g id="Group_2026" data-name="Group 2026" transform="translate(0 0)">
    <g id="Group_2006" data-name="Group 2006" transform="translate(0 0)">
      <path id="Path_2517" data-name="Path 2517" d="M450.8,608.46A17.955,17.955,0,1,1,432.844,590.5,17.956,17.956,0,0,1,450.8,608.46Z" transform="translate(-414.889 -590.505)" fill="#ffd21f"/>
    </g>
    <g id="Group_2007" data-name="Group 2007" transform="translate(8.478 10.714)">
      <path id="Path_2518" data-name="Path 2518" d="M448.691,647.316h0a1.308,1.308,0,0,1-1.3-1.3v-3.13a1.308,1.308,0,0,1,1.3-1.3h0a1.308,1.308,0,0,1,1.3,1.3v3.13A1.308,1.308,0,0,1,448.691,647.316Z" transform="translate(-447.387 -641.577)" fill="#403408"/>
      <path id="Path_2519" data-name="Path 2519" d="M511.357,647.316h0a1.308,1.308,0,0,1-1.3-1.3v-3.13a1.308,1.308,0,0,1,1.3-1.3h0a1.308,1.308,0,0,1,1.3,1.3v3.13A1.308,1.308,0,0,1,511.357,647.316Z" transform="translate(-493.706 -641.577)" fill="#403408"/>
    </g>
    <line id="Line_83" data-name="Line 83" x2="20.564" transform="translate(7.674 23.085)" fill="none" stroke="#403408" stroke-linecap="round" stroke-miterlimit="10" stroke-width="3"/>
  </g>
</svg>
