<svg xmlns="http://www.w3.org/2000/svg" width="32.316" height="19.425" viewBox="0 0 32.316 19.425">
  <path id="speed" d="M32.316,118.279A16.158,16.158,0,0,0,4.733,106.854,16.053,16.053,0,0,0,0,118.279v.947H12.94a3.392,3.392,0,0,0,6.139.653,3.424,3.424,0,0,0,.3-.653H32.316Zm-14.867.637a1.5,1.5,0,1,1,.161-1.136A1.5,1.5,0,0,1,17.449,118.916Zm2-1.584-.006-.024a3.373,3.373,0,0,0-.813-1.479l2.721-4.608-1.631-.963L17,114.867a3.4,3.4,0,0,0-4.134,2.466H1.925a14.158,14.158,0,0,1,1.436-5.349l2.1,1.214.947-1.64-2.1-1.212a14.381,14.381,0,0,1,3.914-3.915l1.213,2.1,1.64-.947-1.214-2.1a14.158,14.158,0,0,1,5.349-1.435v2.43H17.1v-2.43a14.158,14.158,0,0,1,5.349,1.435l-1.214,2.1,1.64.947,1.213-2.1a14.382,14.382,0,0,1,3.914,3.915l-2.1,1.212.947,1.64,2.1-1.214a14.158,14.158,0,0,1,1.436,5.349Z" transform="translate(0 -102.121)" fill="#165888"/>
</svg>
