<svg id="Group_2018" data-name="Group 2018" xmlns="http://www.w3.org/2000/svg" width="61.252" height="61.252" viewBox="0 0 61.252 61.252">
  <g id="Group_2010" data-name="Group 2010">
    <path id="Path_2520" data-name="Path 2520" d="M476.141,82.459a30.626,30.626,0,1,1-30.627-30.626A30.627,30.627,0,0,1,476.141,82.459Z" transform="translate(-414.889 -51.833)" fill="#a2fb1b"/>
  </g>
  <g id="Group_2011" data-name="Group 2011" transform="translate(12.791 21.545)">
    <path id="Path_2521" data-name="Path 2521" d="M505.136,109.5s-.056-4.746,4.171-4.746,4.134,4.709,4.134,4.709" transform="translate(-477.772 -104.75)" fill="none" stroke="#403408" stroke-linecap="round" stroke-miterlimit="10" stroke-width="3"/>
    <path id="Path_2522" data-name="Path 2522" d="M443.636,109.5s-.056-4.746,4.171-4.746,4.134,4.709,4.134,4.709" transform="translate(-443.636 -104.75)" fill="none" stroke="#403408" stroke-linecap="round" stroke-miterlimit="10" stroke-width="3"/>
  </g>
  <path id="Path_2523" data-name="Path 2523" d="M481,138.75s-2.32,8.12-11.024,8.12-10.926-8.057-10.926-8.057" transform="translate(-439.403 -100.077)" fill="none" stroke="#403408" stroke-linecap="round" stroke-miterlimit="10" stroke-width="3"/>
</svg>
