<svg xmlns="http://www.w3.org/2000/svg" width="74.515" height="74.515" viewBox="0 0 74.515 74.515">
  <g id="Group_2017" data-name="Group 2017" transform="translate(-719 -1095)">
    <g id="Group_2000" data-name="Group 2000" transform="translate(719 1095)">
      <circle id="Ellipse_149" data-name="Ellipse 149" cx="31.29" cy="31.29" r="31.29" transform="translate(0 61.134) rotate(-77.653)" fill="#e9e9e9"/>
    </g>
    <g id="Group_2001" data-name="Group 2001" transform="translate(739.57 1120.578)">
      <path id="Path_2510" data-name="Path 2510" d="M447.012,454.087l7.511,4.262-7.453,4.224" transform="translate(-447.012 -454.087)" fill="none" stroke="#b7b7b7" stroke-linecap="round" stroke-linejoin="round" stroke-width="3"/>
      <path id="Path_2511" data-name="Path 2511" d="M511.624,462.573l-7.339-4.262,7.281-4.224" transform="translate(-478.248 -454.087)" fill="none" stroke="#b7b7b7" stroke-linecap="round" stroke-linejoin="round" stroke-width="3"/>
    </g>
    <path id="Path_2512" data-name="Path 2512" d="M459.054,497.028s2.37-8.3,11.263-8.3,11.163,8.232,11.163,8.232" transform="translate(285.99 647.596)" fill="none" stroke="#b7b7b7" stroke-linecap="round" stroke-miterlimit="10" stroke-width="3"/>
  </g>
</svg>
